%YAML 1.1
%TAG !u! tag:unity3d.com,2011:
--- !u!1001 &5220942713033654523
PrefabInstance:
  m_ObjectHideFlags: 0
  serializedVersion: 2
  m_Modification:
    m_TransformParent: {fileID: 0}
    m_Modifications:
    - target: {fileID: 2780680768800875284, guid: 561969c2a94534a47b07a19b0030ba56,
        type: 3}
      propertyPath: m_LocalPosition.x
      value: -4.8462534
      objectReference: {fileID: 0}
    - target: {fileID: 2780680768800875284, guid: 561969c2a94534a47b07a19b0030ba56,
        type: 3}
      propertyPath: m_LocalPosition.y
      value: -0.5757265
      objectReference: {fileID: 0}
    - target: {fileID: 2780680768800875284, guid: 561969c2a94534a47b07a19b0030ba56,
        type: 3}
      propertyPath: m_LocalPosition.z
      value: 8.012909
      objectReference: {fileID: 0}
    - target: {fileID: 2780680768800875284, guid: 561969c2a94534a47b07a19b0030ba56,
        type: 3}
      propertyPath: m_LocalRotation.x
      value: 0
      objectReference: {fileID: 0}
    - target: {fileID: 2780680768800875284, guid: 561969c2a94534a47b07a19b0030ba56,
        type: 3}
      propertyPath: m_LocalRotation.y
      value: 0
      objectReference: {fileID: 0}
    - target: {fileID: 2780680768800875284, guid: 561969c2a94534a47b07a19b0030ba56,
        type: 3}
      propertyPath: m_LocalRotation.z
      value: 0
      objectReference: {fileID: 0}
    - target: {fileID: 2780680768800875284, guid: 561969c2a94534a47b07a19b0030ba56,
        type: 3}
      propertyPath: m_LocalRotation.w
      value: 1
      objectReference: {fileID: 0}
    - target: {fileID: 2780680768800875284, guid: 561969c2a94534a47b07a19b0030ba56,
        type: 3}
      propertyPath: m_RootOrder
      value: 0
      objectReference: {fileID: 0}
    - target: {fileID: 2780680768800875284, guid: 561969c2a94534a47b07a19b0030ba56,
        type: 3}
      propertyPath: m_LocalEulerAnglesHint.x
      value: 0
      objectReference: {fileID: 0}
    - target: {fileID: 2780680768800875284, guid: 561969c2a94534a47b07a19b0030ba56,
        type: 3}
      propertyPath: m_LocalEulerAnglesHint.y
      value: 0
      objectReference: {fileID: 0}
    - target: {fileID: 2780680768800875284, guid: 561969c2a94534a47b07a19b0030ba56,
        type: 3}
      propertyPath: m_LocalEulerAnglesHint.z
      value: 0
      objectReference: {fileID: 0}
    - target: {fileID: 3304840314758543790, guid: 561969c2a94534a47b07a19b0030ba56,
        type: 3}
      propertyPath: m_Name
      value: Character_GamerGirl
      objectReference: {fileID: 0}
    - target: {fileID: 3304840314758543790, guid: 561969c2a94534a47b07a19b0030ba56,
        type: 3}
      propertyPath: m_IsActive
      value: 1
      objectReference: {fileID: 0}
    - target: {fileID: 4025772588705679705, guid: 561969c2a94534a47b07a19b0030ba56,
        type: 3}
      propertyPath: m_IsActive
      value: 1
      objectReference: {fileID: 0}
    - target: {fileID: 6333949601137790204, guid: 561969c2a94534a47b07a19b0030ba56,
        type: 3}
      propertyPath: m_IsActive
      value: 0
      objectReference: {fileID: 0}
    - target: {fileID: 8103905070680062318, guid: 561969c2a94534a47b07a19b0030ba56,
        type: 3}
      propertyPath: m_WarningMessage
      value: 
      objectReference: {fileID: 0}
    m_RemovedComponents: []
  m_SourcePrefab: {fileID: 100100000, guid: 561969c2a94534a47b07a19b0030ba56, type: 3}
