%YAML 1.1
%TAG !u! tag:unity3d.com,2011:
--- !u!1001 &8452536161300226445
PrefabInstance:
  m_ObjectHideFlags: 0
  serializedVersion: 2
  m_Modification:
    m_TransformParent: {fileID: 0}
    m_Modifications:
    - target: {fileID: 642367997784397811, guid: 35062a91cd37df14b8fbbb153916aa97,
        type: 3}
      propertyPath: m_IsActive
      value: 0
      objectReference: {fileID: 0}
    - target: {fileID: 696827784069287502, guid: 35062a91cd37df14b8fbbb153916aa97,
        type: 3}
      propertyPath: m_IsActive
      value: 0
      objectReference: {fileID: 0}
    - target: {fileID: 1041319712312914722, guid: 35062a91cd37df14b8fbbb153916aa97,
        type: 3}
      propertyPath: m_IsActive
      value: 0
      objectReference: {fileID: 0}
    - target: {fileID: 1238453726645020166, guid: 35062a91cd37df14b8fbbb153916aa97,
        type: 3}
      propertyPath: m_IsActive
      value: 0
      objectReference: {fileID: 0}
    - target: {fileID: 2310210772354785552, guid: 35062a91cd37df14b8fbbb153916aa97,
        type: 3}
      propertyPath: m_IsActive
      value: 0
      objectReference: {fileID: 0}
    - target: {fileID: 2549185515862516638, guid: 35062a91cd37df14b8fbbb153916aa97,
        type: 3}
      propertyPath: m_IsActive
      value: 0
      objectReference: {fileID: 0}
    - target: {fileID: 2554140448065004941, guid: 35062a91cd37df14b8fbbb153916aa97,
        type: 3}
      propertyPath: m_ConnectedAnchor.y
      value: 0.061365668
      objectReference: {fileID: 0}
    - target: {fileID: 2554140448065004941, guid: 35062a91cd37df14b8fbbb153916aa97,
        type: 3}
      propertyPath: m_ConnectedAnchor.z
      value: 1.5145777e-15
      objectReference: {fileID: 0}
    - target: {fileID: 2554140448257812753, guid: 35062a91cd37df14b8fbbb153916aa97,
        type: 3}
      propertyPath: m_ConnectedAnchor.z
      value: -0.00000008940697
      objectReference: {fileID: 0}
    - target: {fileID: 2554140448407301988, guid: 35062a91cd37df14b8fbbb153916aa97,
        type: 3}
      propertyPath: m_ConnectedAnchor.y
      value: -0.007856987
      objectReference: {fileID: 0}
    - target: {fileID: 2554140448695982131, guid: 35062a91cd37df14b8fbbb153916aa97,
        type: 3}
      propertyPath: m_ConnectedAnchor.x
      value: -0.33947417
      objectReference: {fileID: 0}
    - target: {fileID: 2554140448695982131, guid: 35062a91cd37df14b8fbbb153916aa97,
        type: 3}
      propertyPath: m_ConnectedAnchor.y
      value: -0.0014489731
      objectReference: {fileID: 0}
    - target: {fileID: 2554140448695982131, guid: 35062a91cd37df14b8fbbb153916aa97,
        type: 3}
      propertyPath: m_ConnectedAnchor.z
      value: -0.00143639
      objectReference: {fileID: 0}
    - target: {fileID: 2554140448806070882, guid: 35062a91cd37df14b8fbbb153916aa97,
        type: 3}
      propertyPath: m_ConnectedAnchor.y
      value: -0.00000004229514
      objectReference: {fileID: 0}
    - target: {fileID: 2554140448806070882, guid: 35062a91cd37df14b8fbbb153916aa97,
        type: 3}
      propertyPath: m_ConnectedAnchor.z
      value: 0.0003814626
      objectReference: {fileID: 0}
    - target: {fileID: 2554140448965985746, guid: 35062a91cd37df14b8fbbb153916aa97,
        type: 3}
      propertyPath: m_ConnectedAnchor.x
      value: -0.39930922
      objectReference: {fileID: 0}
    - target: {fileID: 2554140448965985746, guid: 35062a91cd37df14b8fbbb153916aa97,
        type: 3}
      propertyPath: m_ConnectedAnchor.y
      value: -0.00000016391277
      objectReference: {fileID: 0}
    - target: {fileID: 2554140448965985746, guid: 35062a91cd37df14b8fbbb153916aa97,
        type: 3}
      propertyPath: m_ConnectedAnchor.z
      value: 0.00000011920929
      objectReference: {fileID: 0}
    - target: {fileID: 2554140449021008596, guid: 35062a91cd37df14b8fbbb153916aa97,
        type: 3}
      propertyPath: m_ConnectedAnchor.y
      value: 0.00000013783574
      objectReference: {fileID: 0}
    - target: {fileID: 2554140449021008596, guid: 35062a91cd37df14b8fbbb153916aa97,
        type: 3}
      propertyPath: m_ConnectedAnchor.z
      value: -0.000001036562
      objectReference: {fileID: 0}
    - target: {fileID: 2554140449144688701, guid: 35062a91cd37df14b8fbbb153916aa97,
        type: 3}
      propertyPath: m_ConnectedAnchor.x
      value: 0.3394749
      objectReference: {fileID: 0}
    - target: {fileID: 2554140449144688701, guid: 35062a91cd37df14b8fbbb153916aa97,
        type: 3}
      propertyPath: m_ConnectedAnchor.y
      value: 0.0014475281
      objectReference: {fileID: 0}
    - target: {fileID: 2554140449144688701, guid: 35062a91cd37df14b8fbbb153916aa97,
        type: 3}
      propertyPath: m_ConnectedAnchor.z
      value: 0.0014362875
      objectReference: {fileID: 0}
    - target: {fileID: 2554140449382353655, guid: 35062a91cd37df14b8fbbb153916aa97,
        type: 3}
      propertyPath: m_ConnectedAnchor.x
      value: -0.27114534
      objectReference: {fileID: 0}
    - target: {fileID: 2554140449382353655, guid: 35062a91cd37df14b8fbbb153916aa97,
        type: 3}
      propertyPath: m_ConnectedAnchor.y
      value: 0.000000070060196
      objectReference: {fileID: 0}
    - target: {fileID: 2554140449382353655, guid: 35062a91cd37df14b8fbbb153916aa97,
        type: 3}
      propertyPath: m_ConnectedAnchor.z
      value: -0.00038155954
      objectReference: {fileID: 0}
    - target: {fileID: 2554140449465495063, guid: 35062a91cd37df14b8fbbb153916aa97,
        type: 3}
      propertyPath: m_ConnectedAnchor.x
      value: 0.041157667
      objectReference: {fileID: 0}
    - target: {fileID: 2554140449465495063, guid: 35062a91cd37df14b8fbbb153916aa97,
        type: 3}
      propertyPath: m_ConnectedAnchor.y
      value: -0.026920825
      objectReference: {fileID: 0}
    - target: {fileID: 2554140449746977237, guid: 35062a91cd37df14b8fbbb153916aa97,
        type: 3}
      propertyPath: m_ConnectedAnchor.y
      value: 0.000000039115548
      objectReference: {fileID: 0}
    - target: {fileID: 2554140449746977237, guid: 35062a91cd37df14b8fbbb153916aa97,
        type: 3}
      propertyPath: m_ConnectedAnchor.z
      value: 0.00000013876706
      objectReference: {fileID: 0}
    - target: {fileID: 2554140449818645428, guid: 35062a91cd37df14b8fbbb153916aa97,
        type: 3}
      propertyPath: m_ConnectedAnchor.x
      value: -0.2818374
      objectReference: {fileID: 0}
    - target: {fileID: 2554140449818645428, guid: 35062a91cd37df14b8fbbb153916aa97,
        type: 3}
      propertyPath: m_ConnectedAnchor.y
      value: 0.036005214
      objectReference: {fileID: 0}
    - target: {fileID: 2554140449951228517, guid: 35062a91cd37df14b8fbbb153916aa97,
        type: 3}
      propertyPath: m_ConnectedAnchor.x
      value: 0.041157786
      objectReference: {fileID: 0}
    - target: {fileID: 2554140449951228517, guid: 35062a91cd37df14b8fbbb153916aa97,
        type: 3}
      propertyPath: m_ConnectedAnchor.y
      value: -0.02692084
      objectReference: {fileID: 0}
    - target: {fileID: 2554140450176966195, guid: 35062a91cd37df14b8fbbb153916aa97,
        type: 3}
      propertyPath: m_ConnectedAnchor.y
      value: -0.007856548
      objectReference: {fileID: 0}
    - target: {fileID: 2664046621041431512, guid: 35062a91cd37df14b8fbbb153916aa97,
        type: 3}
      propertyPath: m_LocalPosition.x
      value: -4.8462534
      objectReference: {fileID: 0}
    - target: {fileID: 2664046621041431512, guid: 35062a91cd37df14b8fbbb153916aa97,
        type: 3}
      propertyPath: m_LocalPosition.y
      value: -0.5757265
      objectReference: {fileID: 0}
    - target: {fileID: 2664046621041431512, guid: 35062a91cd37df14b8fbbb153916aa97,
        type: 3}
      propertyPath: m_LocalPosition.z
      value: 8.012909
      objectReference: {fileID: 0}
    - target: {fileID: 2664046621041431512, guid: 35062a91cd37df14b8fbbb153916aa97,
        type: 3}
      propertyPath: m_LocalRotation.x
      value: 0
      objectReference: {fileID: 0}
    - target: {fileID: 2664046621041431512, guid: 35062a91cd37df14b8fbbb153916aa97,
        type: 3}
      propertyPath: m_LocalRotation.y
      value: 0
      objectReference: {fileID: 0}
    - target: {fileID: 2664046621041431512, guid: 35062a91cd37df14b8fbbb153916aa97,
        type: 3}
      propertyPath: m_LocalRotation.z
      value: 0
      objectReference: {fileID: 0}
    - target: {fileID: 2664046621041431512, guid: 35062a91cd37df14b8fbbb153916aa97,
        type: 3}
      propertyPath: m_LocalRotation.w
      value: 1
      objectReference: {fileID: 0}
    - target: {fileID: 2664046621041431512, guid: 35062a91cd37df14b8fbbb153916aa97,
        type: 3}
      propertyPath: m_RootOrder
      value: 0
      objectReference: {fileID: 0}
    - target: {fileID: 2664046621041431512, guid: 35062a91cd37df14b8fbbb153916aa97,
        type: 3}
      propertyPath: m_LocalEulerAnglesHint.x
      value: 0
      objectReference: {fileID: 0}
    - target: {fileID: 2664046621041431512, guid: 35062a91cd37df14b8fbbb153916aa97,
        type: 3}
      propertyPath: m_LocalEulerAnglesHint.y
      value: 0
      objectReference: {fileID: 0}
    - target: {fileID: 2664046621041431512, guid: 35062a91cd37df14b8fbbb153916aa97,
        type: 3}
      propertyPath: m_LocalEulerAnglesHint.z
      value: 0
      objectReference: {fileID: 0}
    - target: {fileID: 3086252273155955868, guid: 35062a91cd37df14b8fbbb153916aa97,
        type: 3}
      propertyPath: m_IsActive
      value: 0
      objectReference: {fileID: 0}
    - target: {fileID: 3437171089450551650, guid: 35062a91cd37df14b8fbbb153916aa97,
        type: 3}
      propertyPath: m_Name
      value: Character_Roadworker
      objectReference: {fileID: 0}
    - target: {fileID: 3437171089450551650, guid: 35062a91cd37df14b8fbbb153916aa97,
        type: 3}
      propertyPath: m_IsActive
      value: 1
      objectReference: {fileID: 0}
    - target: {fileID: 3749057111654646532, guid: 35062a91cd37df14b8fbbb153916aa97,
        type: 3}
      propertyPath: m_IsActive
      value: 1
      objectReference: {fileID: 0}
    - target: {fileID: 6163417700009278512, guid: 35062a91cd37df14b8fbbb153916aa97,
        type: 3}
      propertyPath: m_IsActive
      value: 0
      objectReference: {fileID: 0}
    - target: {fileID: 6254572313091212979, guid: 35062a91cd37df14b8fbbb153916aa97,
        type: 3}
      propertyPath: m_IsActive
      value: 0
      objectReference: {fileID: 0}
    - target: {fileID: 7736495375072114807, guid: 35062a91cd37df14b8fbbb153916aa97,
        type: 3}
      propertyPath: m_IsActive
      value: 0
      objectReference: {fileID: 0}
    - target: {fileID: 8328065582842499204, guid: 35062a91cd37df14b8fbbb153916aa97,
        type: 3}
      propertyPath: m_IsActive
      value: 0
      objectReference: {fileID: 0}
    m_RemovedComponents: []
  m_SourcePrefab: {fileID: 100100000, guid: 35062a91cd37df14b8fbbb153916aa97, type: 3}
