%YAML 1.1
%TAG !u! tag:unity3d.com,2011:
--- !u!1001 &1981282114070855201
PrefabInstance:
  m_ObjectHideFlags: 0
  serializedVersion: 2
  m_Modification:
    m_TransformParent: {fileID: 0}
    m_Modifications:
    - target: {fileID: 850727736453087695, guid: af734f4e5c720f04f880192dda9fc355,
        type: 3}
      propertyPath: m_IsActive
      value: 1
      objectReference: {fileID: 0}
    - target: {fileID: 1946020271905196577, guid: af734f4e5c720f04f880192dda9fc355,
        type: 3}
      propertyPath: m_IsActive
      value: 0
      objectReference: {fileID: 0}
    - target: {fileID: 2782482650764958809, guid: af734f4e5c720f04f880192dda9fc355,
        type: 3}
      propertyPath: m_LocalPosition.x
      value: -4.8462534
      objectReference: {fileID: 0}
    - target: {fileID: 2782482650764958809, guid: af734f4e5c720f04f880192dda9fc355,
        type: 3}
      propertyPath: m_LocalPosition.y
      value: -0.5757265
      objectReference: {fileID: 0}
    - target: {fileID: 2782482650764958809, guid: af734f4e5c720f04f880192dda9fc355,
        type: 3}
      propertyPath: m_LocalPosition.z
      value: 8.012909
      objectReference: {fileID: 0}
    - target: {fileID: 2782482650764958809, guid: af734f4e5c720f04f880192dda9fc355,
        type: 3}
      propertyPath: m_LocalRotation.x
      value: 0
      objectReference: {fileID: 0}
    - target: {fileID: 2782482650764958809, guid: af734f4e5c720f04f880192dda9fc355,
        type: 3}
      propertyPath: m_LocalRotation.y
      value: 0
      objectReference: {fileID: 0}
    - target: {fileID: 2782482650764958809, guid: af734f4e5c720f04f880192dda9fc355,
        type: 3}
      propertyPath: m_LocalRotation.z
      value: 0
      objectReference: {fileID: 0}
    - target: {fileID: 2782482650764958809, guid: af734f4e5c720f04f880192dda9fc355,
        type: 3}
      propertyPath: m_LocalRotation.w
      value: 1
      objectReference: {fileID: 0}
    - target: {fileID: 2782482650764958809, guid: af734f4e5c720f04f880192dda9fc355,
        type: 3}
      propertyPath: m_RootOrder
      value: 0
      objectReference: {fileID: 0}
    - target: {fileID: 2782482650764958809, guid: af734f4e5c720f04f880192dda9fc355,
        type: 3}
      propertyPath: m_LocalEulerAnglesHint.x
      value: 0
      objectReference: {fileID: 0}
    - target: {fileID: 2782482650764958809, guid: af734f4e5c720f04f880192dda9fc355,
        type: 3}
      propertyPath: m_LocalEulerAnglesHint.y
      value: 0
      objectReference: {fileID: 0}
    - target: {fileID: 2782482650764958809, guid: af734f4e5c720f04f880192dda9fc355,
        type: 3}
      propertyPath: m_LocalEulerAnglesHint.z
      value: 0
      objectReference: {fileID: 0}
    - target: {fileID: 3302983052413109987, guid: af734f4e5c720f04f880192dda9fc355,
        type: 3}
      propertyPath: m_Name
      value: Character_HipsterGirl
      objectReference: {fileID: 0}
    m_RemovedComponents: []
  m_SourcePrefab: {fileID: 100100000, guid: af734f4e5c720f04f880192dda9fc355, type: 3}
