%YAML 1.1
%TAG !u! tag:unity3d.com,2011:
--- !u!1001 &308993893733916437
PrefabInstance:
  m_ObjectHideFlags: 0
  serializedVersion: 2
  m_Modification:
    m_TransformParent: {fileID: 0}
    m_Modifications:
    - target: {fileID: 1717862539196267167, guid: 2f8d541066c6f694c8ba747621cc7de5,
        type: 3}
      propertyPath: m_LocalPosition.x
      value: -4.8462534
      objectReference: {fileID: 0}
    - target: {fileID: 1717862539196267167, guid: 2f8d541066c6f694c8ba747621cc7de5,
        type: 3}
      propertyPath: m_LocalPosition.y
      value: -0.5757265
      objectReference: {fileID: 0}
    - target: {fileID: 1717862539196267167, guid: 2f8d541066c6f694c8ba747621cc7de5,
        type: 3}
      propertyPath: m_LocalPosition.z
      value: 8.012909
      objectReference: {fileID: 0}
    - target: {fileID: 1717862539196267167, guid: 2f8d541066c6f694c8ba747621cc7de5,
        type: 3}
      propertyPath: m_LocalRotation.x
      value: 0
      objectReference: {fileID: 0}
    - target: {fileID: 1717862539196267167, guid: 2f8d541066c6f694c8ba747621cc7de5,
        type: 3}
      propertyPath: m_LocalRotation.y
      value: 0
      objectReference: {fileID: 0}
    - target: {fileID: 1717862539196267167, guid: 2f8d541066c6f694c8ba747621cc7de5,
        type: 3}
      propertyPath: m_LocalRotation.z
      value: 0
      objectReference: {fileID: 0}
    - target: {fileID: 1717862539196267167, guid: 2f8d541066c6f694c8ba747621cc7de5,
        type: 3}
      propertyPath: m_LocalRotation.w
      value: 1
      objectReference: {fileID: 0}
    - target: {fileID: 1717862539196267167, guid: 2f8d541066c6f694c8ba747621cc7de5,
        type: 3}
      propertyPath: m_RootOrder
      value: 0
      objectReference: {fileID: 0}
    - target: {fileID: 1717862539196267167, guid: 2f8d541066c6f694c8ba747621cc7de5,
        type: 3}
      propertyPath: m_LocalEulerAnglesHint.x
      value: 0
      objectReference: {fileID: 0}
    - target: {fileID: 1717862539196267167, guid: 2f8d541066c6f694c8ba747621cc7de5,
        type: 3}
      propertyPath: m_LocalEulerAnglesHint.y
      value: 0
      objectReference: {fileID: 0}
    - target: {fileID: 1717862539196267167, guid: 2f8d541066c6f694c8ba747621cc7de5,
        type: 3}
      propertyPath: m_LocalEulerAnglesHint.z
      value: 0
      objectReference: {fileID: 0}
    - target: {fileID: 2061736361891602469, guid: 2f8d541066c6f694c8ba747621cc7de5,
        type: 3}
      propertyPath: m_Name
      value: Character_PunkGuy
      objectReference: {fileID: 0}
    - target: {fileID: 2450052426633318209, guid: 2f8d541066c6f694c8ba747621cc7de5,
        type: 3}
      propertyPath: m_IsActive
      value: 0
      objectReference: {fileID: 0}
    - target: {fileID: 4421418193784576613, guid: 2f8d541066c6f694c8ba747621cc7de5,
        type: 3}
      propertyPath: m_IsActive
      value: 1
      objectReference: {fileID: 0}
    m_RemovedComponents: []
  m_SourcePrefab: {fileID: 100100000, guid: 2f8d541066c6f694c8ba747621cc7de5, type: 3}
