%YAML 1.1
%TAG !u! tag:unity3d.com,2011:
--- !u!1001 &4198660983373549553
PrefabInstance:
  m_ObjectHideFlags: 0
  serializedVersion: 2
  m_Modification:
    m_TransformParent: {fileID: 0}
    m_Modifications:
    - target: {fileID: 4726461249082796836, guid: bac9bda71672a9c479629f884f5bd2c6,
        type: 3}
      propertyPath: m_Name
      value: Character_SummerGirl
      objectReference: {fileID: 0}
    - target: {fileID: 4967498447784001242, guid: bac9bda71672a9c479629f884f5bd2c6,
        type: 3}
      propertyPath: m_IsActive
      value: 1
      objectReference: {fileID: 0}
    - target: {fileID: 5394208282024538526, guid: bac9bda71672a9c479629f884f5bd2c6,
        type: 3}
      propertyPath: m_LocalPosition.x
      value: -4.8462534
      objectReference: {fileID: 0}
    - target: {fileID: 5394208282024538526, guid: bac9bda71672a9c479629f884f5bd2c6,
        type: 3}
      propertyPath: m_LocalPosition.y
      value: -0.5757265
      objectReference: {fileID: 0}
    - target: {fileID: 5394208282024538526, guid: bac9bda71672a9c479629f884f5bd2c6,
        type: 3}
      propertyPath: m_LocalPosition.z
      value: 8.012909
      objectReference: {fileID: 0}
    - target: {fileID: 5394208282024538526, guid: bac9bda71672a9c479629f884f5bd2c6,
        type: 3}
      propertyPath: m_LocalRotation.x
      value: 0
      objectReference: {fileID: 0}
    - target: {fileID: 5394208282024538526, guid: bac9bda71672a9c479629f884f5bd2c6,
        type: 3}
      propertyPath: m_LocalRotation.y
      value: 0
      objectReference: {fileID: 0}
    - target: {fileID: 5394208282024538526, guid: bac9bda71672a9c479629f884f5bd2c6,
        type: 3}
      propertyPath: m_LocalRotation.z
      value: 0
      objectReference: {fileID: 0}
    - target: {fileID: 5394208282024538526, guid: bac9bda71672a9c479629f884f5bd2c6,
        type: 3}
      propertyPath: m_LocalRotation.w
      value: 1
      objectReference: {fileID: 0}
    - target: {fileID: 5394208282024538526, guid: bac9bda71672a9c479629f884f5bd2c6,
        type: 3}
      propertyPath: m_RootOrder
      value: 0
      objectReference: {fileID: 0}
    - target: {fileID: 5394208282024538526, guid: bac9bda71672a9c479629f884f5bd2c6,
        type: 3}
      propertyPath: m_LocalEulerAnglesHint.x
      value: 0
      objectReference: {fileID: 0}
    - target: {fileID: 5394208282024538526, guid: bac9bda71672a9c479629f884f5bd2c6,
        type: 3}
      propertyPath: m_LocalEulerAnglesHint.y
      value: 0
      objectReference: {fileID: 0}
    - target: {fileID: 5394208282024538526, guid: bac9bda71672a9c479629f884f5bd2c6,
        type: 3}
      propertyPath: m_LocalEulerAnglesHint.z
      value: 0
      objectReference: {fileID: 0}
    - target: {fileID: 7408049587506607541, guid: bac9bda71672a9c479629f884f5bd2c6,
        type: 3}
      propertyPath: m_IsActive
      value: 0
      objectReference: {fileID: 0}
    m_RemovedComponents: []
  m_SourcePrefab: {fileID: 100100000, guid: bac9bda71672a9c479629f884f5bd2c6, type: 3}
