%YAML 1.1
%TAG !u! tag:unity3d.com,2011:
--- !u!74 &7400000
AnimationClip:
  m_ObjectHideFlags: 0
  m_CorrespondingSourceObject: {fileID: 0}
  m_PrefabInstance: {fileID: 0}
  m_PrefabAsset: {fileID: 0}
  m_Name: jump_start_custom hum
  serializedVersion: 6
  m_Legacy: 0
  m_Compressed: 0
  m_UseHighQualityCurve: 0
  m_RotationCurves:
  - curve:
      serializedVersion: 2
      m_Curve:
      - serializedVersion: 3
        time: 0
        value: {x: -0.0204478, y: -0.017599285, z: -0.0061812853, w: 0.9996169}
        inSlope: {x: 0.4038021, y: 0.07786268, z: -0.016785165, w: 0.006701946}
        outSlope: {x: 0.4038021, y: 0.07786268, z: -0.016785165, w: 0.006701946}
        tangentMode: 0
        weightedMode: 0
        inWeight: {x: 0.33333334, y: 0.33333334, z: 0.33333334, w: 0.33333334}
        outWeight: {x: 0.33333334, y: 0.33333334, z: 0.33333334, w: 0.33333334}
      - serializedVersion: 3
        time: 0.13333334
        value: {x: 0.07185462, y: -0.000815894, z: -0.021789482, w: 0.99717677}
        inSlope: {x: 1.0508337, y: 0.27966002, z: -0.24610193, w: -0.08373321}
        outSlope: {x: 1.0508337, y: 0.27966002, z: -0.24610193, w: -0.08373321}
        tangentMode: 0
        weightedMode: 0
        inWeight: {x: 0.33333334, y: 0.33333334, z: 0.33333334, w: 0.33333334}
        outWeight: {x: 0.33333334, y: 0.33333334, z: 0.33333334, w: 0.33333334}
      - serializedVersion: 3
        time: 0.26666668
        value: {x: 0.22564994, y: 0.031735055, z: -0.031374775, w: 0.97318584}
        inSlope: {x: 1.1212586, y: -0.015910864, z: -0.009351187, w: -0.25880817}
        outSlope: {x: 1.1212586, y: -0.015910864, z: -0.009351187, w: -0.25880817}
        tangentMode: 0
        weightedMode: 0
        inWeight: {x: 0.33333334, y: 0.33333334, z: 0.33333334, w: 0.33333334}
        outWeight: {x: 0.33333334, y: 0.33333334, z: 0.33333334, w: 0.33333334}
      - serializedVersion: 3
        time: 0.40000004
        value: {x: 0.32360756, y: 0.038549308, z: -0.030812206, w: 0.94490355}
        inSlope: {x: 0.19260482, y: 0.2872002, z: -0.016774476, w: -0.077592686}
        outSlope: {x: 0.19260482, y: 0.2872002, z: -0.016774476, w: -0.077592686}
        tangentMode: 0
        weightedMode: 0
        inWeight: {x: 0.33333334, y: 0.33333334, z: 0.33333334, w: 0.33333334}
        outWeight: {x: 0.33333334, y: 0.33333334, z: 0.33333334, w: 0.33333334}
      - serializedVersion: 3
        time: 0.46666667
        value: {x: 0.32092637, y: 0.056623794, z: -0.030568663, w: 0.9454932}
        inSlope: {x: -0.2887133, y: 0.2527239, z: 0.03245326, w: 0.090753786}
        outSlope: {x: -0.2887133, y: 0.2527239, z: 0.03245326, w: 0.090753786}
        tangentMode: 0
        weightedMode: 0
        inWeight: {x: 0.33333334, y: 0.33333334, z: 0.33333334, w: 0.33333334}
        outWeight: {x: 0.33333334, y: 0.33333334, z: 0.33333334, w: 0.33333334}
      m_PreInfinity: 2
      m_PostInfinity: 2
      m_RotationOrder: 4
    path: mixamorig:Hips
  - curve:
      serializedVersion: 2
      m_Curve:
      - serializedVersion: 3
        time: 0
        value: {x: 0.014098382, y: -0.0049149427, z: -0.0064400015, w: 0.9998678}
        inSlope: {x: 0.13106552, y: 0.012099612, z: 0.0051176823, w: -0.0020456314}
        outSlope: {x: 0.13106552, y: 0.012099612, z: 0.0051176823, w: -0.0020456314}
        tangentMode: 0
        weightedMode: 0
        inWeight: {x: 0.33333334, y: 0.33333334, z: 0.33333334, w: 0.33333334}
        outWeight: {x: 0.33333334, y: 0.33333334, z: 0.33333334, w: 0.33333334}
      - serializedVersion: 3
        time: 0.16666667
        value: {x: 0.038168747, y: -0.0049720863, z: 0.014174223, w: 0.99915844}
        inSlope: {x: 0.14715183, y: -0.06738953, z: 0.09955889, w: -0.0072795143}
        outSlope: {x: 0.14715183, y: -0.06738953, z: 0.09955889, w: -0.0072795143}
        tangentMode: 0
        weightedMode: 0
        inWeight: {x: 0.33333334, y: 0.33333334, z: 0.33333334, w: 0.33333334}
        outWeight: {x: 0.33333334, y: 0.33333334, z: 0.33333334, w: 0.33333334}
      - serializedVersion: 3
        time: 0.33333334
        value: {x: 0.07722176, y: -0.0024809272, z: 0.0064610685, w: 0.9969899}
        inSlope: {x: 0.28169176, y: 0.109692656, z: -0.027403763, w: -0.021522047}
        outSlope: {x: 0.28169176, y: 0.109692656, z: -0.027403763, w: -0.021522047}
        tangentMode: 0
        weightedMode: 0
        inWeight: {x: 0.33333334, y: 0.33333334, z: 0.33333334, w: 0.33333334}
        outWeight: {x: 0.33333334, y: 0.33333334, z: 0.33333334, w: 0.33333334}
      - serializedVersion: 3
        time: 0.46666667
        value: {x: 0.11443775, y: 0.0076325266, z: 0.020411141, w: 0.99316895}
        inSlope: {x: 0.11473789, y: 0.098643236, z: 0.13247496, w: -0.01531005}
        outSlope: {x: 0.11473789, y: 0.098643236, z: 0.13247496, w: -0.01531005}
        tangentMode: 0
        weightedMode: 0
        inWeight: {x: 0.33333334, y: 0.33333334, z: 0.33333334, w: 0.33333334}
        outWeight: {x: 0.33333334, y: 0.33333334, z: 0.33333334, w: 0.33333334}
      m_PreInfinity: 2
      m_PostInfinity: 2
      m_RotationOrder: 4
    path: mixamorig:Hips/mixamorig:Spine
  - curve:
      serializedVersion: 2
      m_Curve:
      - serializedVersion: 3
        time: 0
        value: {x: 0.008123952, y: -0.0012266835, z: -0.0031661382, w: 0.99996126}
        inSlope: {x: 0.08014633, y: 0.012630628, z: 0.003542653, w: -0.0007349252}
        outSlope: {x: 0.08014633, y: 0.012630628, z: 0.003542653, w: -0.0007349252}
        tangentMode: 0
        weightedMode: 0
        inWeight: {x: 0.33333334, y: 0.33333334, z: 0.33333334, w: 0.33333334}
        outWeight: {x: 0.33333334, y: 0.33333334, z: 0.33333334, w: 0.33333334}
      - serializedVersion: 3
        time: 0.33333334
        value: {x: 0.04327363, y: -0.0036829181, z: -0.00381551, w: 0.9990492}
        inSlope: {x: 0.16361722, y: 0.033749048, z: -0.017664384, w: -0.0071141133}
        outSlope: {x: 0.16361722, y: 0.033749048, z: -0.017664384, w: -0.0071141133}
        tangentMode: 0
        weightedMode: 0
        inWeight: {x: 0.33333334, y: 0.33333334, z: 0.33333334, w: 0.33333334}
        outWeight: {x: 0.33333334, y: 0.33333334, z: 0.33333334, w: 0.33333334}
      - serializedVersion: 3
        time: 0.46666667
        value: {x: 0.064270936, y: -0.0010986926, z: 0.0023865919, w: 0.99792325}
        inSlope: {x: 0.06471668, y: 0.04227486, z: 0.05498758, w: -0.0038666727}
        outSlope: {x: 0.06471668, y: 0.04227486, z: 0.05498758, w: -0.0038666727}
        tangentMode: 0
        weightedMode: 0
        inWeight: {x: 0.33333334, y: 0.33333334, z: 0.33333334, w: 0.33333334}
        outWeight: {x: 0.33333334, y: 0.33333334, z: 0.33333334, w: 0.33333334}
      m_PreInfinity: 2
      m_PostInfinity: 2
      m_RotationOrder: 4
    path: mixamorig:Hips/mixamorig:Spine/mixamorig:Spine1
  - curve:
      serializedVersion: 2
      m_Curve:
      - serializedVersion: 3
        time: 0
        value: {x: 0.00811644, y: -0.0013014344, z: -0.0031656972, w: 0.9999612}
        inSlope: {x: 0.07993913, y: 0.012139992, z: 0.003480627, w: -0.00073134893}
        outSlope: {x: 0.07993913, y: 0.012139992, z: 0.003480627, w: -0.00073134893}
        tangentMode: 0
        weightedMode: 0
        inWeight: {x: 0.33333334, y: 0.33333334, z: 0.33333334, w: 0.33333334}
        outWeight: {x: 0.33333334, y: 0.33333334, z: 0.33333334, w: 0.33333334}
      - serializedVersion: 3
        time: 0.33333334
        value: {x: 0.0433066, y: -0.0032122354, z: -0.0039336304, w: 0.99904895}
        inSlope: {x: 0.16315605, y: 0.034717686, z: -0.01762283, w: -0.0071132192}
        outSlope: {x: 0.16315605, y: 0.034717686, z: -0.01762283, w: -0.0071132192}
        tangentMode: 0
        weightedMode: 0
        inWeight: {x: 0.33333334, y: 0.33333334, z: 0.33333334, w: 0.33333334}
        outWeight: {x: 0.33333334, y: 0.33333334, z: 0.33333334, w: 0.33333334}
      - serializedVersion: 3
        time: 0.46666667
        value: {x: 0.064282164, y: -0.0005782979, z: 0.002267107, w: 0.99792325}
        inSlope: {x: 0.064417884, y: 0.041638505, z: 0.055750143, w: -0.0038648846}
        outSlope: {x: 0.064417884, y: 0.041638505, z: 0.055750143, w: -0.0038648846}
        tangentMode: 0
        weightedMode: 0
        inWeight: {x: 0.33333334, y: 0.33333334, z: 0.33333334, w: 0.33333334}
        outWeight: {x: 0.33333334, y: 0.33333334, z: 0.33333334, w: 0.33333334}
      m_PreInfinity: 2
      m_PostInfinity: 2
      m_RotationOrder: 4
    path: mixamorig:Hips/mixamorig:Spine/mixamorig:Spine1/mixamorig:Spine2
  - curve:
      serializedVersion: 2
      m_Curve:
      - serializedVersion: 3
        time: 0
        value: {x: 0.012233424, y: 0.0051284875, z: 0.0056188083, w: 0.9998962}
        inSlope: {x: -0.02398311, y: -0.009863767, z: 0.020481054, w: 0.00021100043}
        outSlope: {x: -0.02398311, y: -0.009863767, z: 0.020481054, w: 0.00021100043}
        tangentMode: 0
        weightedMode: 0
        inWeight: {x: 0.33333334, y: 0.33333334, z: 0.33333334, w: 0.33333334}
        outWeight: {x: 0.33333334, y: 0.33333334, z: 0.33333334, w: 0.33333334}
      - serializedVersion: 3
        time: 0.26666668
        value: {x: -0.03315513, y: 0.004226216, z: 0.006183703, w: 0.99942213}
        inSlope: {x: -0.2569644, y: -0.008982289, z: -0.03144643, w: -0.008120836}
        outSlope: {x: -0.2569644, y: -0.008982289, z: -0.03144643, w: -0.008120836}
        tangentMode: 0
        weightedMode: 0
        inWeight: {x: 0.33333334, y: 0.33333334, z: 0.33333334, w: 0.33333334}
        outWeight: {x: 0.33333334, y: 0.33333334, z: 0.33333334, w: 0.33333334}
      - serializedVersion: 3
        time: 0.46666667
        value: {x: -0.055451345, y: 0.0003166471, z: 0.00057092984, w: 0.99850214}
        inSlope: {x: 0.01849647, y: -0.028326696, z: -0.011323982, w: 0.00016897915}
        outSlope: {x: 0.01849647, y: -0.028326696, z: -0.011323982, w: 0.00016897915}
        tangentMode: 0
        weightedMode: 0
        inWeight: {x: 0.33333334, y: 0.33333334, z: 0.33333334, w: 0.33333334}
        outWeight: {x: 0.33333334, y: 0.33333334, z: 0.33333334, w: 0.33333334}
      m_PreInfinity: 2
      m_PostInfinity: 2
      m_RotationOrder: 4
    path: mixamorig:Hips/mixamorig:Spine/mixamorig:Spine1/mixamorig:Spine2/mixamorig:Neck
  - curve:
      serializedVersion: 2
      m_Curve:
      - serializedVersion: 3
        time: 0
        value: {x: -0.04167137, y: 0.036245663, z: 0.04280141, w: 0.9975559}
        inSlope: {x: -0.075093016, y: -0.053533424, z: 0.033891946, w: -0.0028073785}
        outSlope: {x: -0.075093016, y: -0.053533424, z: 0.033891946, w: -0.0028073785}
        tangentMode: 0
        weightedMode: 0
        inWeight: {x: 0.33333334, y: 0.33333334, z: 0.33333334, w: 0.33333334}
        outWeight: {x: 0.33333334, y: 0.33333334, z: 0.33333334, w: 0.33333334}
      - serializedVersion: 3
        time: 0.16666667
        value: {x: -0.1477152, y: 0.033282027, z: 0.04206289, w: 0.98757446}
        inSlope: {x: -1.2913592, y: 0.016695073, z: 0.035482597, w: -0.20298597}
        outSlope: {x: -1.2913592, y: 0.016695073, z: 0.035482597, w: -0.20298597}
        tangentMode: 0
        weightedMode: 0
        inWeight: {x: 0.33333334, y: 0.33333334, z: 0.33333334, w: 0.33333334}
        outWeight: {x: 0.33333334, y: 0.33333334, z: 0.33333334, w: 0.33333334}
      - serializedVersion: 3
        time: 0.3
        value: {x: -0.39089304, y: 0.028328137, z: 0.048959486, w: 0.91869646}
        inSlope: {x: -1.9991256, y: -0.13879988, z: 0.05132329, w: -0.848322}
        outSlope: {x: -1.9991256, y: -0.13879988, z: 0.05132329, w: -0.848322}
        tangentMode: 0
        weightedMode: 0
        inWeight: {x: 0.33333334, y: 0.33333334, z: 0.33333334, w: 0.33333334}
        outWeight: {x: 0.33333334, y: 0.33333334, z: 0.33333334, w: 0.33333334}
      - serializedVersion: 3
        time: 0.40000004
        value: {x: -0.56785643, y: 0.011127248, z: 0.038660273, w: 0.8221439}
        inSlope: {x: -1.2271377, y: -0.21147923, z: -0.27606535, w: -0.8121269}
        outSlope: {x: -1.2271377, y: -0.21147923, z: -0.27606535, w: -0.8121269}
        tangentMode: 0
        weightedMode: 0
        inWeight: {x: 0.33333334, y: 0.33333334, z: 0.33333334, w: 0.33333334}
        outWeight: {x: 0.33333334, y: 0.33333334, z: 0.33333334, w: 0.33333334}
      - serializedVersion: 3
        time: 0.4666667
        value: {x: -0.60211855, y: -0.0045376243, z: 0.022618111, w: 0.79807335}
        inSlope: {x: 0.34936616, y: -0.21450853, z: -0.14334226, w: 0.25690314}
        outSlope: {x: 0.34936616, y: -0.21450853, z: -0.14334226, w: 0.25690314}
        tangentMode: 0
        weightedMode: 0
        inWeight: {x: 0.33333334, y: 0.33333334, z: 0.33333334, w: 0.33333334}
        outWeight: {x: 0.33333334, y: 0.33333334, z: 0.33333334, w: 0.33333334}
      m_PreInfinity: 2
      m_PostInfinity: 2
      m_RotationOrder: 4
    path: mixamorig:Hips/mixamorig:Spine/mixamorig:Spine1/mixamorig:Spine2/mixamorig:Neck/mixamorig:Head
  - curve:
      serializedVersion: 2
      m_Curve:
      - serializedVersion: 3
        time: 0
        value: {x: 0.5886072, y: -0.4184164, z: 0.55069375, w: 0.4185757}
        inSlope: {x: 0.03301263, y: 0.06346375, z: 0.024729965, w: -0.015749931}
        outSlope: {x: 0.03301263, y: 0.06346375, z: 0.024729965, w: -0.015749931}
        tangentMode: 0
        weightedMode: 0
        inWeight: {x: 0.33333334, y: 0.33333334, z: 0.33333334, w: 0.33333334}
        outWeight: {x: 0.33333334, y: 0.33333334, z: 0.33333334, w: 0.33333334}
      - serializedVersion: 3
        time: 0.20000002
        value: {x: 0.5909439, y: -0.40528208, z: 0.56863296, w: 0.40396577}
        inSlope: {x: -0.07030963, y: 0.013934068, z: 0.17856267, w: -0.13429952}
        outSlope: {x: -0.07030963, y: 0.013934068, z: 0.17856267, w: -0.13429952}
        tangentMode: 0
        weightedMode: 0
        inWeight: {x: 0.33333334, y: 0.33333334, z: 0.33333334, w: 0.33333334}
        outWeight: {x: 0.33333334, y: 0.33333334, z: 0.33333334, w: 0.33333334}
      - serializedVersion: 3
        time: 0.4666667
        value: {x: 0.5911961, y: -0.39175734, z: 0.5929358, w: 0.38136685}
        inSlope: {x: 0.23111358, y: 0.24830744, z: 0.009815987, w: -0.120667726}
        outSlope: {x: 0.23111358, y: 0.24830744, z: 0.009815987, w: -0.120667726}
        tangentMode: 0
        weightedMode: 0
        inWeight: {x: 0.33333334, y: 0.33333334, z: 0.33333334, w: 0.33333334}
        outWeight: {x: 0.33333334, y: 0.33333334, z: 0.33333334, w: 0.33333334}
      m_PreInfinity: 2
      m_PostInfinity: 2
      m_RotationOrder: 4
    path: mixamorig:Hips/mixamorig:Spine/mixamorig:Spine1/mixamorig:Spine2/mixamorig:LeftShoulder
  - curve:
      serializedVersion: 2
      m_Curve:
      - serializedVersion: 3
        time: 0
        value: {x: 0.5189557, y: -0.03902065, z: 0.038989764, w: 0.8530194}
        inSlope: {x: -0.55714667, y: -0.83965904, z: -0.35033834, w: 0.29264686}
        outSlope: {x: -0.55714667, y: -0.83965904, z: -0.35033834, w: 0.29264686}
        tangentMode: 0
        weightedMode: 0
        inWeight: {x: 0.33333334, y: 0.33333334, z: 0.33333334, w: 0.33333334}
        outWeight: {x: 0.33333334, y: 0.33333334, z: 0.33333334, w: 0.33333334}
      - serializedVersion: 3
        time: 0.13333334
        value: {x: 0.44224373, y: -0.15630864, z: 0.0123687405, w: 0.88308275}
        inSlope: {x: -0.42788124, y: -0.7775552, z: 0.14007764, w: 0.076616414}
        outSlope: {x: -0.42788124, y: -0.7775552, z: 0.14007764, w: 0.076616414}
        tangentMode: 0
        weightedMode: 0
        inWeight: {x: 0.33333334, y: 0.33333334, z: 0.33333334, w: 0.33333334}
        outWeight: {x: 0.33333334, y: 0.33333334, z: 0.33333334, w: 0.33333334}
      - serializedVersion: 3
        time: 0.3
        value: {x: 0.4485851, y: -0.26372975, z: 0.07035851, w: 0.85103923}
        inSlope: {x: 0.41856992, y: -0.27761716, z: 0.36999947, w: -0.3351492}
        outSlope: {x: 0.41856992, y: -0.27761716, z: 0.36999947, w: -0.3351492}
        tangentMode: 0
        weightedMode: 0
        inWeight: {x: 0.33333334, y: 0.33333334, z: 0.33333334, w: 0.33333334}
        outWeight: {x: 0.33333334, y: 0.33333334, z: 0.33333334, w: 0.33333334}
      - serializedVersion: 3
        time: 0.40000004
        value: {x: 0.4768136, y: -0.26483577, z: 0.07251128, w: 0.8350167}
        inSlope: {x: -0.020520296, y: 0.5786275, z: -0.5592371, w: 0.22827923}
        outSlope: {x: -0.020520296, y: 0.5786275, z: -0.5592371, w: 0.22827923}
        tangentMode: 0
        weightedMode: 0
        inWeight: {x: 0.33333334, y: 0.33333334, z: 0.33333334, w: 0.33333334}
        outWeight: {x: 0.33333334, y: 0.33333334, z: 0.33333334, w: 0.33333334}
      - serializedVersion: 3
        time: 0.4666667
        value: {x: 0.44619247, y: -0.19533524, z: -0.02230941, w: 0.8730743}
        inSlope: {x: -1.3002911, y: 1.123538, z: -2.5356662, w: 0.7735951}
        outSlope: {x: -1.3002911, y: 1.123538, z: -2.5356662, w: 0.7735951}
        tangentMode: 0
        weightedMode: 0
        inWeight: {x: 0.33333334, y: 0.33333334, z: 0.33333334, w: 0.33333334}
        outWeight: {x: 0.33333334, y: 0.33333334, z: 0.33333334, w: 0.33333334}
      m_PreInfinity: 2
      m_PostInfinity: 2
      m_RotationOrder: 4
    path: mixamorig:Hips/mixamorig:Spine/mixamorig:Spine1/mixamorig:Spine2/mixamorig:LeftShoulder/mixamorig:LeftArm
  - curve:
      serializedVersion: 2
      m_Curve:
      - serializedVersion: 3
        time: 0
        value: {x: 0.0047337045, y: -0.00014536017, z: -0.15980299, w: 0.98713756}
        inSlope: {x: 0.03202218, y: 0.000030541123, z: -1.0810429, w: -0.19555269}
        outSlope: {x: 0.03202218, y: 0.000030541123, z: -1.0810429, w: -0.19555269}
        tangentMode: 0
        weightedMode: 0
        inWeight: {x: 0.33333334, y: 0.33333334, z: 0.33333334, w: 0.33333334}
        outWeight: {x: 0.33333334, y: 0.33333334, z: 0.33333334, w: 0.33333334}
      - serializedVersion: 3
        time: 0.13333334
        value: {x: 0.008939344, y: -0.00014032963, z: -0.30177754, w: 0.9533365}
        inSlope: {x: 0.025434244, y: 0.000045980854, z: -0.85878575, w: -0.2689201}
        outSlope: {x: 0.025434244, y: 0.000045980854, z: -0.85878575, w: -0.2689201}
        tangentMode: 0
        weightedMode: 0
        inWeight: {x: 0.33333334, y: 0.33333334, z: 0.33333334, w: 0.33333334}
        outWeight: {x: 0.33333334, y: 0.33333334, z: 0.33333334, w: 0.33333334}
      - serializedVersion: 3
        time: 0.26666668
        value: {x: 0.009311713, y: -0.00013967358, z: -0.31435326, w: 0.9492604}
        inSlope: {x: -0.034694165, y: -0.00005847426, z: 1.1712013, w: 0.37081364}
        outSlope: {x: -0.034694165, y: -0.00005847426, z: 1.1712013, w: 0.37081364}
        tangentMode: 0
        weightedMode: 0
        inWeight: {x: 0.33333334, y: 0.33333334, z: 0.33333334, w: 0.33333334}
        outWeight: {x: 0.33333334, y: 0.33333334, z: 0.33333334, w: 0.33333334}
      - serializedVersion: 3
        time: 0.33333334
        value: {x: 0.0058340905, y: -0.00014413273, z: -0.19695325, w: 0.98039556}
        inSlope: {x: -0.05474267, y: -0.00005334296, z: 1.8480529, w: 0.37972125}
        outSlope: {x: -0.05474267, y: -0.00005334296, z: 1.8480529, w: 0.37972125}
        tangentMode: 0
        weightedMode: 0
        inWeight: {x: 0.33333334, y: 0.33333334, z: 0.33333334, w: 0.33333334}
        outWeight: {x: 0.33333334, y: 0.33333334, z: 0.33333334, w: 0.33333334}
      - serializedVersion: 3
        time: 0.4666667
        value: {x: 0.0012738096, y: -0.00014695624, z: -0.042997394, w: 0.9990744}
        inSlope: {x: -0.022764206, y: -0.000006282283, z: 0.7685516, w: 0.034819555}
        outSlope: {x: -0.022764206, y: -0.000006282283, z: 0.7685516, w: 0.034819555}
        tangentMode: 0
        weightedMode: 0
        inWeight: {x: 0.33333334, y: 0.33333334, z: 0.33333334, w: 0.33333334}
        outWeight: {x: 0.33333334, y: 0.33333334, z: 0.33333334, w: 0.33333334}
      m_PreInfinity: 2
      m_PostInfinity: 2
      m_RotationOrder: 4
    path: mixamorig:Hips/mixamorig:Spine/mixamorig:Spine1/mixamorig:Spine2/mixamorig:LeftShoulder/mixamorig:LeftArm/mixamorig:LeftForeArm
  - curve:
      serializedVersion: 2
      m_Curve:
      - serializedVersion: 3
        time: 0
        value: {x: 0.07653637, y: 0.14415488, z: -0.029648125, w: 0.9861453}
        inSlope: {x: -0.7648857, y: 0.6740936, z: -0.46147716, w: -0.0743097}
        outSlope: {x: -0.7648857, y: 0.6740936, z: -0.46147716, w: -0.0743097}
        tangentMode: 0
        weightedMode: 0
        inWeight: {x: 0.33333334, y: 0.33333334, z: 0.33333334, w: 0.33333334}
        outWeight: {x: 0.33333334, y: 0.33333334, z: 0.33333334, w: 0.33333334}
      - serializedVersion: 3
        time: 0.10000001
        value: {x: -0.018353675, y: 0.21882485, z: -0.09115226, w: 0.9713239}
        inSlope: {x: -1.1085802, y: 0.5558259, z: -0.7389931, w: -0.21177202}
        outSlope: {x: -1.1085802, y: 0.5558259, z: -0.7389931, w: -0.21177202}
        tangentMode: 0
        weightedMode: 0
        inWeight: {x: 0.33333334, y: 0.33333334, z: 0.33333334, w: 0.33333334}
        outWeight: {x: 0.33333334, y: 0.33333334, z: 0.33333334, w: 0.33333334}
      - serializedVersion: 3
        time: 0.23333335
        value: {x: -0.11365863, y: 0.2504093, z: -0.17159688, w: 0.94600815}
        inSlope: {x: -0.27403682, y: 0.35474005, z: -0.456702, w: -0.20968081}
        outSlope: {x: -0.27403682, y: 0.35474005, z: -0.456702, w: -0.20968081}
        tangentMode: 0
        weightedMode: 0
        inWeight: {x: 0.33333334, y: 0.33333334, z: 0.33333334, w: 0.33333334}
        outWeight: {x: 0.33333334, y: 0.33333334, z: 0.33333334, w: 0.33333334}
      - serializedVersion: 3
        time: 0.3
        value: {x: -0.11140028, y: 0.2681918, z: -0.20532236, w: 0.9346154}
        inSlope: {x: 0.50675505, y: -0.09775625, z: -0.63168573, w: -0.056701902}
        outSlope: {x: 0.50675505, y: -0.09775625, z: -0.63168573, w: -0.056701902}
        tangentMode: 0
        weightedMode: 0
        inWeight: {x: 0.33333334, y: 0.33333334, z: 0.33333334, w: 0.33333334}
        outWeight: {x: 0.33333334, y: 0.33333334, z: 0.33333334, w: 0.33333334}
      - serializedVersion: 3
        time: 0.36666667
        value: {x: -0.061585877, y: 0.2557701, z: -0.24698696, w: 0.9326233}
        inSlope: {x: 0.5526445, y: 0.1064809, z: -0.42679232, w: -0.10079557}
        outSlope: {x: 0.5526445, y: 0.1064809, z: -0.42679232, w: -0.10079557}
        tangentMode: 0
        weightedMode: 0
        inWeight: {x: 0.33333334, y: 0.33333334, z: 0.33333334, w: 0.33333334}
        outWeight: {x: 0.33333334, y: 0.33333334, z: 0.33333334, w: 0.33333334}
      - serializedVersion: 3
        time: 0.4666667
        value: {x: -0.0695423, y: 0.2896645, z: -0.26692453, w: 0.9165204}
        inSlope: {x: -0.5953133, y: 0.4285891, z: -0.1017474, w: -0.21388483}
        outSlope: {x: -0.5953133, y: 0.4285891, z: -0.1017474, w: -0.21388483}
        tangentMode: 0
        weightedMode: 0
        inWeight: {x: 0.33333334, y: 0.33333334, z: 0.33333334, w: 0.33333334}
        outWeight: {x: 0.33333334, y: 0.33333334, z: 0.33333334, w: 0.33333334}
      m_PreInfinity: 2
      m_PostInfinity: 2
      m_RotationOrder: 4
    path: mixamorig:Hips/mixamorig:Spine/mixamorig:Spine1/mixamorig:Spine2/mixamorig:LeftShoulder/mixamorig:LeftArm/mixamorig:LeftForeArm/mixamorig:LeftHand
  - curve:
      serializedVersion: 2
      m_Curve:
      - serializedVersion: 3
        time: 0
        value: {x: 0.065294296, y: 0.0012529558, z: 0.026520507, w: 0.9975128}
        inSlope: {x: 0.023634283, y: 0.012452088, z: -0.1806161, w: 0.0026822088}
        outSlope: {x: 0.023634283, y: 0.012452088, z: -0.1806161, w: 0.0026822088}
        tangentMode: 0
        weightedMode: 0
        inWeight: {x: 0.33333334, y: 0.33333334, z: 0.33333334, w: 0.33333334}
        outWeight: {x: 0.33333334, y: 0.33333334, z: 0.33333334, w: 0.33333334}
      - serializedVersion: 3
        time: 0.13333334
        value: {x: 0.07406251, y: 0.0059454096, z: -0.041628722, w: 0.9963667}
        inSlope: {x: 0.091515414, y: 0.049814276, z: -0.7245692, w: -0.037077967}
        outSlope: {x: 0.091515414, y: 0.049814276, z: -0.7245692, w: -0.037077967}
        tangentMode: 0
        weightedMode: 0
        inWeight: {x: 0.33333334, y: 0.33333334, z: 0.33333334, w: 0.33333334}
        outWeight: {x: 0.33333334, y: 0.33333334, z: 0.33333334, w: 0.33333334}
      - serializedVersion: 3
        time: 0.26666668
        value: {x: 0.081130974, y: 0.009850976, z: -0.098511055, w: 0.9917743}
        inSlope: {x: 0.0036986547, y: 0.0020734177, z: -0.03023442, w: -0.003294647}
        outSlope: {x: 0.0036986547, y: 0.0020734177, z: -0.03023442, w: -0.003294647}
        tangentMode: 0
        weightedMode: 0
        inWeight: {x: 0.33333334, y: 0.33333334, z: 0.33333334, w: 0.33333334}
        outWeight: {x: 0.33333334, y: 0.33333334, z: 0.33333334, w: 0.33333334}
      - serializedVersion: 3
        time: 0.4666667
        value: {x: 0.081130765, y: 0.00985097, z: -0.098511055, w: 0.9917744}
        inSlope: {x: -0.00000044703444, y: 0.0000018440188, z: 0.000000782311, w: 0.00000089406973}
        outSlope: {x: -0.00000044703444, y: 0.0000018440188, z: 0.000000782311, w: 0.00000089406973}
        tangentMode: 0
        weightedMode: 0
        inWeight: {x: 0.33333334, y: 0.33333334, z: 0.33333334, w: 0.33333334}
        outWeight: {x: 0.33333334, y: 0.33333334, z: 0.33333334, w: 0.33333334}
      m_PreInfinity: 2
      m_PostInfinity: 2
      m_RotationOrder: 4
    path: mixamorig:Hips/mixamorig:Spine/mixamorig:Spine1/mixamorig:Spine2/mixamorig:LeftShoulder/mixamorig:LeftArm/mixamorig:LeftForeArm/mixamorig:LeftHand/mixamorig:LeftHandIndex1
  - curve:
      serializedVersion: 2
      m_Curve:
      - serializedVersion: 3
        time: 0
        value: {x: 0.24579385, y: -0.020544918, z: 0.13760534, w: 0.9592852}
        inSlope: {x: 0.0000017881392, y: 0.0000012293457, z: -0.0000004470348, w: -0.0000017881392}
        outSlope: {x: 0.0000017881392, y: 0.0000012293457, z: -0.0000004470348, w: -0.0000017881392}
        tangentMode: 0
        weightedMode: 0
        inWeight: {x: 0.33333334, y: 0.33333334, z: 0.33333334, w: 0.33333334}
        outWeight: {x: 0.33333334, y: 0.33333334, z: 0.33333334, w: 0.33333334}
      - serializedVersion: 3
        time: 0.4666667
        value: {x: 0.2457941, y: -0.020544946, z: 0.13760543, w: 0.9592851}
        inSlope: {x: -0.00000022351838, y: 0.0000003911562, z: 0.0000006705523, w: 7.9580786e-13}
        outSlope: {x: -0.00000022351838, y: 0.0000003911562, z: 0.0000006705523, w: 7.9580786e-13}
        tangentMode: 0
        weightedMode: 0
        inWeight: {x: 0.33333334, y: 0.33333334, z: 0.33333334, w: 0.33333334}
        outWeight: {x: 0.33333334, y: 0.33333334, z: 0.33333334, w: 0.33333334}
      m_PreInfinity: 2
      m_PostInfinity: 2
      m_RotationOrder: 4
    path: mixamorig:Hips/mixamorig:Spine/mixamorig:Spine1/mixamorig:Spine2/mixamorig:LeftShoulder/mixamorig:LeftArm/mixamorig:LeftForeArm/mixamorig:LeftHand/mixamorig:LeftHandIndex1/mixamorig:LeftHandIndex2
  - curve:
      serializedVersion: 2
      m_Curve:
      - serializedVersion: 3
        time: 0
        value: {x: 0.12891258, y: -0.03758058, z: 0.2007395, w: 0.97039837}
        inSlope: {x: -0.0000058114524, y: 0.0000027939675, z: -0.0000008940696, w: 0}
        outSlope: {x: -0.0000058114524, y: 0.0000027939675, z: -0.0000008940696, w: 0}
        tangentMode: 0
        weightedMode: 0
        inWeight: {x: 0.33333334, y: 0.33333334, z: 0.33333334, w: 0.33333334}
        outWeight: {x: 0.33333334, y: 0.33333334, z: 0.33333334, w: 0.33333334}
      - serializedVersion: 3
        time: 0.46666667
        value: {x: 0.12770034, y: -0.037085604, z: 0.20057711, w: 0.9706143}
        inSlope: {x: 0.031165749, y: -0.01272808, z: 0.0041766167, w: -0.005551517}
        outSlope: {x: 0.031165749, y: -0.01272808, z: 0.0041766167, w: -0.005551517}
        tangentMode: 0
        weightedMode: 0
        inWeight: {x: 0.33333334, y: 0.33333334, z: 0.33333334, w: 0.33333334}
        outWeight: {x: 0.33333334, y: 0.33333334, z: 0.33333334, w: 0.33333334}
      m_PreInfinity: 2
      m_PostInfinity: 2
      m_RotationOrder: 4
    path: mixamorig:Hips/mixamorig:Spine/mixamorig:Spine1/mixamorig:Spine2/mixamorig:LeftShoulder/mixamorig:LeftArm/mixamorig:LeftForeArm/mixamorig:LeftHand/mixamorig:LeftHandIndex1/mixamorig:LeftHandIndex2/mixamorig:LeftHandIndex3
  - curve:
      serializedVersion: 2
      m_Curve:
      - serializedVersion: 3
        time: 0
        value: {x: 0.6090392, y: 0.39936757, z: -0.5403914, w: 0.42137155}
        inSlope: {x: 0.06558001, y: -0.084999196, z: 0.031410456, w: 0.025535522}
        outSlope: {x: 0.06558001, y: -0.084999196, z: 0.031410456, w: 0.025535522}
        tangentMode: 0
        weightedMode: 0
        inWeight: {x: 0.33333334, y: 0.33333334, z: 0.33333334, w: 0.33333334}
        outWeight: {x: 0.33333334, y: 0.33333334, z: 0.33333334, w: 0.33333334}
      - serializedVersion: 3
        time: 0.23333335
        value: {x: 0.60536206, y: 0.3951524, z: -0.55023634, w: 0.41788915}
        inSlope: {x: -0.20453544, y: 0.17428593, z: -0.067956455, w: 0.04094929}
        outSlope: {x: -0.20453544, y: 0.17428593, z: -0.067956455, w: 0.04094929}
        tangentMode: 0
        weightedMode: 0
        inWeight: {x: 0.33333334, y: 0.33333334, z: 0.33333334, w: 0.33333334}
        outWeight: {x: 0.33333334, y: 0.33333334, z: 0.33333334, w: 0.33333334}
      - serializedVersion: 3
        time: 0.40000004
        value: {x: 0.58518845, y: 0.40566114, z: -0.57448757, w: 0.40368}
        inSlope: {x: 0.119436964, y: -0.20183665, z: -0.21575859, w: -0.28011775}
        outSlope: {x: 0.119436964, y: -0.20183665, z: -0.21575859, w: -0.28011775}
        tangentMode: 0
        weightedMode: 0
        inWeight: {x: 0.33333334, y: 0.33333334, z: 0.33333334, w: 0.33333334}
        outWeight: {x: 0.33333334, y: 0.33333334, z: 0.33333334, w: 0.33333334}
      - serializedVersion: 3
        time: 0.46666667
        value: {x: 0.60351837, y: 0.38233396, z: -0.5854901, w: 0.38312125}
        inSlope: {x: 0.37666294, y: -0.43140087, z: -0.085904606, w: -0.2786139}
        outSlope: {x: 0.37666294, y: -0.43140087, z: -0.085904606, w: -0.2786139}
        tangentMode: 0
        weightedMode: 0
        inWeight: {x: 0.33333334, y: 0.33333334, z: 0.33333334, w: 0.33333334}
        outWeight: {x: 0.33333334, y: 0.33333334, z: 0.33333334, w: 0.33333334}
      m_PreInfinity: 2
      m_PostInfinity: 2
      m_RotationOrder: 4
    path: mixamorig:Hips/mixamorig:Spine/mixamorig:Spine1/mixamorig:Spine2/mixamorig:RightShoulder
  - curve:
      serializedVersion: 2
      m_Curve:
      - serializedVersion: 3
        time: 0
        value: {x: 0.48824427, y: 0.14643763, z: 0.02129751, w: 0.86006975}
        inSlope: {x: -0.47502813, y: 0.48697647, z: 0.13122115, w: 0.17361401}
        outSlope: {x: -0.47502813, y: 0.48697647, z: 0.13122115, w: 0.17361401}
        tangentMode: 0
        weightedMode: 0
        inWeight: {x: 0.33333334, y: 0.33333334, z: 0.33333334, w: 0.33333334}
        outWeight: {x: 0.33333334, y: 0.33333334, z: 0.33333334, w: 0.33333334}
      - serializedVersion: 3
        time: 0.06666667
        value: {x: 0.4514369, y: 0.18710598, z: 0.028706403, w: 0.8719932}
        inSlope: {x: -0.7075832, y: 0.7531691, z: -0.0042616054, w: 0.20199892}
        outSlope: {x: -0.7075832, y: 0.7531691, z: -0.0042616054, w: 0.20199892}
        tangentMode: 0
        weightedMode: 0
        inWeight: {x: 0.33333334, y: 0.33333334, z: 0.33333334, w: 0.33333334}
        outWeight: {x: 0.33333334, y: 0.33333334, z: 0.33333334, w: 0.33333334}
      - serializedVersion: 3
        time: 0.13333334
        value: {x: 0.40110394, y: 0.22355227, z: 0.006210892, w: 0.88831383}
        inSlope: {x: -0.6129286, y: 0.112234816, z: -0.80044246, w: 0.25095466}
        outSlope: {x: -0.6129286, y: 0.112234816, z: -0.80044246, w: 0.25095466}
        tangentMode: 0
        weightedMode: 0
        inWeight: {x: 0.33333334, y: 0.33333334, z: 0.33333334, w: 0.33333334}
        outWeight: {x: 0.33333334, y: 0.33333334, z: 0.33333334, w: 0.33333334}
      - serializedVersion: 3
        time: 0.26666668
        value: {x: 0.394193, y: 0.21432, z: -0.1409103, w: 0.8825095}
        inSlope: {x: 0.45397198, y: 0.3987285, z: -0.72229505, w: -0.41373882}
        outSlope: {x: 0.45397198, y: 0.3987285, z: -0.72229505, w: -0.41373882}
        tangentMode: 0
        weightedMode: 0
        inWeight: {x: 0.33333334, y: 0.33333334, z: 0.33333334, w: 0.33333334}
        outWeight: {x: 0.33333334, y: 0.33333334, z: 0.33333334, w: 0.33333334}
      - serializedVersion: 3
        time: 0.33333334
        value: {x: 0.42927888, y: 0.2574637, z: -0.15894161, w: 0.8509816}
        inSlope: {x: 0.55168486, y: 0.3119492, z: -0.039772246, w: -0.37426296}
        outSlope: {x: 0.55168486, y: 0.3119492, z: -0.039772246, w: -0.37426296}
        tangentMode: 0
        weightedMode: 0
        inWeight: {x: 0.33333334, y: 0.33333334, z: 0.33333334, w: 0.33333334}
        outWeight: {x: 0.33333334, y: 0.33333334, z: 0.33333334, w: 0.33333334}
      - serializedVersion: 3
        time: 0.43333337
        value: {x: 0.4652117, y: 0.19239552, z: -0.13350822, w: 0.8536613}
        inSlope: {x: -0.22569317, y: -1.0673221, z: 1.283582, w: 0.53134924}
        outSlope: {x: -0.22569317, y: -1.0673221, z: 1.283582, w: 0.53134924}
        tangentMode: 0
        weightedMode: 0
        inWeight: {x: 0.33333334, y: 0.33333334, z: 0.33333334, w: 0.33333334}
        outWeight: {x: 0.33333334, y: 0.33333334, z: 0.33333334, w: 0.33333334}
      - serializedVersion: 3
        time: 0.46666667
        value: {x: 0.44577944, y: 0.15958545, z: -0.068712056, w: 0.87804615}
        inSlope: {x: -0.94503766, y: -0.9439512, z: 2.5372498, w: 0.86486584}
        outSlope: {x: -0.94503766, y: -0.9439512, z: 2.5372498, w: 0.86486584}
        tangentMode: 0
        weightedMode: 0
        inWeight: {x: 0.33333334, y: 0.33333334, z: 0.33333334, w: 0.33333334}
        outWeight: {x: 0.33333334, y: 0.33333334, z: 0.33333334, w: 0.33333334}
      m_PreInfinity: 2
      m_PostInfinity: 2
      m_RotationOrder: 4
    path: mixamorig:Hips/mixamorig:Spine/mixamorig:Spine1/mixamorig:Spine2/mixamorig:RightShoulder/mixamorig:RightArm
  - curve:
      serializedVersion: 2
      m_Curve:
      - serializedVersion: 3
        time: 0
        value: {x: 0.0055041225, y: 0.00090286677, z: 0.1570797, w: 0.9875702}
        inSlope: {x: 0.02314837, y: -0.000098756274, z: 0.6606705, w: -0.11280476}
        outSlope: {x: 0.02314837, y: -0.000098756274, z: 0.6606705, w: -0.11280476}
        tangentMode: 0
        weightedMode: 0
        inWeight: {x: 0.33333334, y: 0.33333334, z: 0.33333334, w: 0.33333334}
        outWeight: {x: 0.33333334, y: 0.33333334, z: 0.33333334, w: 0.33333334}
      - serializedVersion: 3
        time: 0.10000001
        value: {x: 0.009081608, y: 0.00088295253, z: 0.25918558, w: 0.9657845}
        inSlope: {x: 0.050504457, y: -0.00035897334, z: 1.4414876, w: -0.39342284}
        outSlope: {x: 0.050504457, y: -0.00035897334, z: 1.4414876, w: -0.39342284}
        tangentMode: 0
        weightedMode: 0
        inWeight: {x: 0.33333334, y: 0.33333334, z: 0.33333334, w: 0.33333334}
        outWeight: {x: 0.33333334, y: 0.33333334, z: 0.33333334, w: 0.33333334}
      - serializedVersion: 3
        time: 0.20000002
        value: {x: 0.014025687, y: 0.00083776814, z: 0.4002871, w: 0.9162821}
        inSlope: {x: 0.030173559, y: -0.00033344774, z: 0.86103356, w: -0.36572808}
        outSlope: {x: 0.030173559, y: -0.00033344774, z: 0.86103356, w: -0.36572808}
        tangentMode: 0
        weightedMode: 0
        inWeight: {x: 0.33333334, y: 0.33333334, z: 0.33333334, w: 0.33333334}
        outWeight: {x: 0.33333334, y: 0.33333334, z: 0.33333334, w: 0.33333334}
      - serializedVersion: 3
        time: 0.3
        value: {x: 0.012962279, y: 0.0008494217, z: 0.36993477, w: 0.92896694}
        inSlope: {x: -0.051036082, y: 0.00051825837, z: -1.4565375, w: 0.5646873}
        outSlope: {x: -0.051036082, y: 0.00051825837, z: -1.4565375, w: 0.5646873}
        tangentMode: 0
        weightedMode: 0
        inWeight: {x: 0.33333334, y: 0.33333334, z: 0.33333334, w: 0.33333334}
        outWeight: {x: 0.33333334, y: 0.33333334, z: 0.33333334, w: 0.33333334}
      - serializedVersion: 3
        time: 0.40000004
        value: {x: 0.00713537, y: 0.0008950375, z: 0.203636, w: 0.9790203}
        inSlope: {x: -0.04947097, y: 0.00026925193, z: -1.4118936, w: 0.29883996}
        outSlope: {x: -0.04947097, y: 0.00026925193, z: -1.4118936, w: 0.29883996}
        tangentMode: 0
        weightedMode: 0
        inWeight: {x: 0.33333334, y: 0.33333334, z: 0.33333334, w: 0.33333334}
        outWeight: {x: 0.33333334, y: 0.33333334, z: 0.33333334, w: 0.33333334}
      - serializedVersion: 3
        time: 0.4666667
        value: {x: 0.0048405775, y: 0.000905557, z: 0.13814528, w: 0.9903998}
        inSlope: {x: -0.018244464, y: 0.00007056867, z: -0.52064794, w: 0.074882835}
        outSlope: {x: -0.018244464, y: 0.00007056867, z: -0.52064794, w: 0.074882835}
        tangentMode: 0
        weightedMode: 0
        inWeight: {x: 0.33333334, y: 0.33333334, z: 0.33333334, w: 0.33333334}
        outWeight: {x: 0.33333334, y: 0.33333334, z: 0.33333334, w: 0.33333334}
      m_PreInfinity: 2
      m_PostInfinity: 2
      m_RotationOrder: 4
    path: mixamorig:Hips/mixamorig:Spine/mixamorig:Spine1/mixamorig:Spine2/mixamorig:RightShoulder/mixamorig:RightArm/mixamorig:RightForeArm
  - curve:
      serializedVersion: 2
      m_Curve:
      - serializedVersion: 3
        time: 0
        value: {x: 0.06885308, y: -0.19264655, z: 0.009488946, w: 0.97880363}
        inSlope: {x: -0.5259928, y: -0.13560265, z: 0.4227864, w: -0.0018560885}
        outSlope: {x: -0.5259928, y: -0.13560265, z: 0.4227864, w: -0.0018560885}
        tangentMode: 0
        weightedMode: 0
        inWeight: {x: 0.33333334, y: 0.33333334, z: 0.33333334, w: 0.33333334}
        outWeight: {x: 0.33333334, y: 0.33333334, z: 0.33333334, w: 0.33333334}
      - serializedVersion: 3
        time: 0.10000001
        value: {x: -0.0148546165, y: -0.20085174, z: 0.063303545, w: 0.9774613}
        inSlope: {x: -1.133429, y: 0.12038068, z: 0.7751118, w: -0.04578799}
        outSlope: {x: -1.133429, y: 0.12038068, z: 0.7751118, w: -0.04578799}
        tangentMode: 0
        weightedMode: 0
        inWeight: {x: 0.33333334, y: 0.33333334, z: 0.33333334, w: 0.33333334}
        outWeight: {x: 0.33333334, y: 0.33333334, z: 0.33333334, w: 0.33333334}
      - serializedVersion: 3
        time: 0.23333335
        value: {x: -0.1629956, y: -0.1940961, z: 0.17924881, w: 0.95059407}
        inSlope: {x: -0.9010464, y: -0.32013127, z: 0.7527157, w: -0.35903695}
        outSlope: {x: -0.9010464, y: -0.32013127, z: 0.7527157, w: -0.35903695}
        tangentMode: 0
        weightedMode: 0
        inWeight: {x: 0.33333334, y: 0.33333334, z: 0.33333334, w: 0.33333334}
        outWeight: {x: 0.33333334, y: 0.33333334, z: 0.33333334, w: 0.33333334}
      - serializedVersion: 3
        time: 0.33333334
        value: {x: -0.21461762, y: -0.24884173, z: 0.24346645, w: 0.9125465}
        inSlope: {x: -0.023245811, y: -0.5354979, z: 0.5471651, w: -0.29407653}
        outSlope: {x: -0.023245811, y: -0.5354979, z: 0.5471651, w: -0.29407653}
        tangentMode: 0
        weightedMode: 0
        inWeight: {x: 0.33333334, y: 0.33333334, z: 0.33333334, w: 0.33333334}
        outWeight: {x: 0.33333334, y: 0.33333334, z: 0.33333334, w: 0.33333334}
      - serializedVersion: 3
        time: 0.40000004
        value: {x: -0.20126538, y: -0.28176844, z: 0.28006643, w: 0.8953556}
        inSlope: {x: 0.13521789, y: -0.6370678, z: 0.60451293, w: -0.3623672}
        outSlope: {x: 0.13521789, y: -0.6370678, z: 0.60451293, w: -0.3623672}
        tangentMode: 0
        weightedMode: 0
        inWeight: {x: 0.33333334, y: 0.33333334, z: 0.33333334, w: 0.33333334}
        outWeight: {x: 0.33333334, y: 0.33333334, z: 0.33333334, w: 0.33333334}
      - serializedVersion: 3
        time: 0.4666667
        value: {x: -0.21137936, y: -0.32442495, z: 0.3115533, w: 0.8677567}
        inSlope: {x: -0.47645763, y: -0.40531725, z: 0.28327227, w: -0.36822277}
        outSlope: {x: -0.47645763, y: -0.40531725, z: 0.28327227, w: -0.36822277}
        tangentMode: 0
        weightedMode: 0
        inWeight: {x: 0.33333334, y: 0.33333334, z: 0.33333334, w: 0.33333334}
        outWeight: {x: 0.33333334, y: 0.33333334, z: 0.33333334, w: 0.33333334}
      m_PreInfinity: 2
      m_PostInfinity: 2
      m_RotationOrder: 4
    path: mixamorig:Hips/mixamorig:Spine/mixamorig:Spine1/mixamorig:Spine2/mixamorig:RightShoulder/mixamorig:RightArm/mixamorig:RightForeArm/mixamorig:RightHand
  - curve:
      serializedVersion: 2
      m_Curve:
      - serializedVersion: 3
        time: 0
        value: {x: 0.039584782, y: -0.0042715883, z: 0.028994292, w: 0.99878633}
        inSlope: {x: -0.008948742, y: -0.010497173, z: 0.09575061, w: -0.0026249883}
        outSlope: {x: -0.008948742, y: -0.010497173, z: 0.09575061, w: -0.0026249883}
        tangentMode: 0
        weightedMode: 0
        inWeight: {x: 0.33333334, y: 0.33333334, z: 0.33333334, w: 0.33333334}
        outWeight: {x: 0.33333334, y: 0.33333334, z: 0.33333334, w: 0.33333334}
      - serializedVersion: 3
        time: 0.26666668
        value: {x: 0.0335848, y: -0.010529299, z: 0.0952936, w: 0.9948268}
        inSlope: {x: -0.0014013426, y: -0.0012606803, z: 0.016062075, w: -0.0014957787}
        outSlope: {x: -0.0014013426, y: -0.0012606803, z: 0.016062075, w: -0.0014957787}
        tangentMode: 0
        weightedMode: 0
        inWeight: {x: 0.33333334, y: 0.33333334, z: 0.33333334, w: 0.33333334}
        outWeight: {x: 0.33333334, y: 0.33333334, z: 0.33333334, w: 0.33333334}
      - serializedVersion: 3
        time: 0.43333337
        value: {x: 0.033584867, y: -0.010529431, z: 0.09529346, w: 0.9948268}
        inSlope: {x: -0.0000006705523, y: -0.0000012153761, z: -0.00000011175871,
          w: 0}
        outSlope: {x: -0.0000006705523, y: -0.0000012153761, z: -0.00000011175871,
          w: 0}
        tangentMode: 0
        weightedMode: 0
        inWeight: {x: 0.33333334, y: 0.33333334, z: 0.33333334, w: 0.33333334}
        outWeight: {x: 0.33333334, y: 0.33333334, z: 0.33333334, w: 0.33333334}
      - serializedVersion: 3
        time: 0.4666667
        value: {x: 0.033584904, y: -0.010529416, z: 0.095293485, w: 0.9948268}
        inSlope: {x: 0.23909514, y: 0.022487285, z: -0.04478276, w: -0.005544131}
        outSlope: {x: 0.23909514, y: 0.022487285, z: -0.04478276, w: -0.005544131}
        tangentMode: 0
        weightedMode: 0
        inWeight: {x: 0.33333334, y: 0.33333334, z: 0.33333334, w: 0.33333334}
        outWeight: {x: 0.33333334, y: 0.33333334, z: 0.33333334, w: 0.33333334}
      m_PreInfinity: 2
      m_PostInfinity: 2
      m_RotationOrder: 4
    path: mixamorig:Hips/mixamorig:Spine/mixamorig:Spine1/mixamorig:Spine2/mixamorig:RightShoulder/mixamorig:RightArm/mixamorig:RightForeArm/mixamorig:RightHand/mixamorig:RightHandIndex1
  - curve:
      serializedVersion: 2
      m_Curve:
      - serializedVersion: 3
        time: 0
        value: {x: 0.22162099, y: 0.017938549, z: -0.17188911, w: 0.95969605}
        inSlope: {x: -0.005253553, y: -0.00068418676, z: 0.00068396324, w: 0.001348257}
        outSlope: {x: -0.005253553, y: -0.00068418676, z: 0.00068396324, w: 0.001348257}
        tangentMode: 0
        weightedMode: 0
        inWeight: {x: 0.33333334, y: 0.33333334, z: 0.33333334, w: 0.33333334}
        outWeight: {x: 0.33333334, y: 0.33333334, z: 0.33333334, w: 0.33333334}
      - serializedVersion: 3
        time: 0.43333337
        value: {x: 0.21798089, y: 0.017467799, z: -0.17141536, w: 0.9606227}
        inSlope: {x: 0.000003129244, y: -0.0000006146729, z: 0.00000022351743, w: -0.00000089406973}
        outSlope: {x: 0.000003129244, y: -0.0000006146729, z: 0.00000022351743, w: -0.00000089406973}
        tangentMode: 0
        weightedMode: 0
        inWeight: {x: 0.33333334, y: 0.33333334, z: 0.33333334, w: 0.33333334}
        outWeight: {x: 0.33333334, y: 0.33333334, z: 0.33333334, w: 0.33333334}
      - serializedVersion: 3
        time: 0.4666667
        value: {x: 0.21798106, y: 0.017467683, z: -0.17141534, w: 0.96062267}
        inSlope: {x: 0.24059996, y: 0.031127037, z: -0.03107275, w: -0.06292021}
        outSlope: {x: 0.24059996, y: 0.031127037, z: -0.03107275, w: -0.06292021}
        tangentMode: 0
        weightedMode: 0
        inWeight: {x: 0.33333334, y: 0.33333334, z: 0.33333334, w: 0.33333334}
        outWeight: {x: 0.33333334, y: 0.33333334, z: 0.33333334, w: 0.33333334}
      m_PreInfinity: 2
      m_PostInfinity: 2
      m_RotationOrder: 4
    path: mixamorig:Hips/mixamorig:Spine/mixamorig:Spine1/mixamorig:Spine2/mixamorig:RightShoulder/mixamorig:RightArm/mixamorig:RightForeArm/mixamorig:RightHand/mixamorig:RightHandIndex1/mixamorig:RightHandIndex2
  - curve:
      serializedVersion: 2
      m_Curve:
      - serializedVersion: 3
        time: 0
        value: {x: -0.0042759585, y: -0.0024031834, z: 0.0017357655, w: 0.99998647}
        inSlope: {x: 0.00004629604, y: 0.0000147661185, z: -0.00000752625, w: 0}
        outSlope: {x: 0.00004629604, y: 0.0000147661185, z: -0.00000752625, w: 0}
        tangentMode: 0
        weightedMode: 0
        inWeight: {x: 0.33333334, y: 0.33333334, z: 0.33333334, w: 0.33333334}
        outWeight: {x: 0.33333334, y: 0.33333334, z: 0.33333334, w: 0.33333334}
      - serializedVersion: 3
        time: 0.4666667
        value: {x: -0.0042465953, y: -0.0023950452, z: 0.0017304419, w: 0.99998665}
        inSlope: {x: 0.052237622, y: 0.014194863, z: -0.009468459, w: 0.00017166154}
        outSlope: {x: 0.052237622, y: 0.014194863, z: -0.009468459, w: 0.00017166154}
        tangentMode: 0
        weightedMode: 0
        inWeight: {x: 0.33333334, y: 0.33333334, z: 0.33333334, w: 0.33333334}
        outWeight: {x: 0.33333334, y: 0.33333334, z: 0.33333334, w: 0.33333334}
      m_PreInfinity: 2
      m_PostInfinity: 2
      m_RotationOrder: 4
    path: mixamorig:Hips/mixamorig:Spine/mixamorig:Spine1/mixamorig:Spine2/mixamorig:RightShoulder/mixamorig:RightArm/mixamorig:RightForeArm/mixamorig:RightHand/mixamorig:RightHandIndex1/mixamorig:RightHandIndex2/mixamorig:RightHandIndex3
  - curve:
      serializedVersion: 2
      m_Curve:
      - serializedVersion: 3
        time: 0
        value: {x: -0.08796974, y: 0.016608877, z: 0.992883, w: 0.07854145}
        inSlope: {x: 0.17192847, y: 1.1317263, z: -0.023013351, w: -0.03425941}
        outSlope: {x: 0.17192847, y: 1.1317263, z: -0.023013351, w: -0.03425941}
        tangentMode: 0
        weightedMode: 0
        inWeight: {x: 0.33333334, y: 0.33333334, z: 0.33333334, w: 0.33333334}
        outWeight: {x: 0.33333334, y: 0.33333334, z: 0.33333334, w: 0.33333334}
      - serializedVersion: 3
        time: 0.13333334
        value: {x: -0.0500425, y: 0.22256188, z: 0.9718619, w: 0.058706366}
        inSlope: {x: 0.3211733, y: 1.9257777, z: -0.41068202, w: -0.3325767}
        outSlope: {x: 0.3211733, y: 1.9257777, z: -0.41068202, w: -0.3325767}
        tangentMode: 0
        weightedMode: 0
        inWeight: {x: 0.33333334, y: 0.33333334, z: 0.33333334, w: 0.33333334}
        outWeight: {x: 0.33333334, y: 0.33333334, z: 0.33333334, w: 0.33333334}
      - serializedVersion: 3
        time: 0.23333335
        value: {x: -0.032588176, y: 0.44868582, z: 0.89197016, w: 0.044814244}
        inSlope: {x: 0.16751984, y: 2.5370245, z: -1.2787924, w: 0.04206436}
        outSlope: {x: 0.16751984, y: 2.5370245, z: -1.2787924, w: 0.04206436}
        tangentMode: 0
        weightedMode: 0
        inWeight: {x: 0.33333334, y: 0.33333334, z: 0.33333334, w: 0.33333334}
        outWeight: {x: 0.33333334, y: 0.33333334, z: 0.33333334, w: 0.33333334}
      - serializedVersion: 3
        time: 0.3
        value: {x: -0.012735332, y: 0.6098341, z: 0.7910951, w: 0.04592295}
        inSlope: {x: 0.35028738, y: 2.0870385, z: -1.5836157, w: 0.018152857}
        outSlope: {x: 0.35028738, y: 2.0870385, z: -1.5836157, w: 0.018152857}
        tangentMode: 0
        weightedMode: 0
        inWeight: {x: 0.33333334, y: 0.33333334, z: 0.33333334, w: 0.33333334}
        outWeight: {x: 0.33333334, y: 0.33333334, z: 0.33333334, w: 0.33333334}
      - serializedVersion: 3
        time: 0.43333337
        value: {x: 0.007398481, y: 0.7580956, z: 0.64944404, w: 0.058811843}
        inSlope: {x: 0.22073644, y: 0.19671144, z: -0.23350061, w: 0.057718962}
        outSlope: {x: 0.22073644, y: 0.19671144, z: -0.23350061, w: 0.057718962}
        tangentMode: 0
        weightedMode: 0
        inWeight: {x: 0.33333334, y: 0.33333334, z: 0.33333334, w: 0.33333334}
        outWeight: {x: 0.33333334, y: 0.33333334, z: 0.33333334, w: 0.33333334}
      - serializedVersion: 3
        time: 0.46666667
        value: {x: 0.017349463, y: 0.7572917, z: 0.6505912, w: 0.059067935}
        inSlope: {x: 0.35540903, y: -0.23900042, z: 0.28472582, w: -0.029827612}
        outSlope: {x: 0.35540903, y: -0.23900042, z: 0.28472582, w: -0.029827612}
        tangentMode: 0
        weightedMode: 0
        inWeight: {x: 0.33333334, y: 0.33333334, z: 0.33333334, w: 0.33333334}
        outWeight: {x: 0.33333334, y: 0.33333334, z: 0.33333334, w: 0.33333334}
      m_PreInfinity: 2
      m_PostInfinity: 2
      m_RotationOrder: 4
    path: mixamorig:Hips/mixamorig:LeftUpLeg
  - curve:
      serializedVersion: 2
      m_Curve:
      - serializedVersion: 3
        time: 0
        value: {x: -0.10219796, y: -0.04127195, z: 0.04477804, w: 0.99289834}
        inSlope: {x: -1.1761942, y: 0.22239256, z: -0.008956454, w: -0.13577878}
        outSlope: {x: -1.1761942, y: 0.22239256, z: -0.008956454, w: -0.13577878}
        tangentMode: 0
        weightedMode: 0
        inWeight: {x: 0.33333334, y: 0.33333334, z: 0.33333334, w: 0.33333334}
        outWeight: {x: 0.33333334, y: 0.33333334, z: 0.33333334, w: 0.33333334}
      - serializedVersion: 3
        time: 0.13333334
        value: {x: -0.2842575, y: -0.02577382, z: 0.049397454, w: 0.95712763}
        inSlope: {x: -1.456547, y: 0.1994427, z: -0.052128848, w: -0.42823347}
        outSlope: {x: -1.456547, y: 0.1994427, z: -0.052128848, w: -0.42823347}
        tangentMode: 0
        weightedMode: 0
        inWeight: {x: 0.33333334, y: 0.33333334, z: 0.33333334, w: 0.33333334}
        outWeight: {x: 0.33333334, y: 0.33333334, z: 0.33333334, w: 0.33333334}
      - serializedVersion: 3
        time: 0.20000002
        value: {x: -0.3927724, y: -0.0043433392, z: 0.039092273, w: 0.9187942}
        inSlope: {x: -2.0183492, y: 0.34250373, z: -0.21709946, w: -0.87781453}
        outSlope: {x: -2.0183492, y: 0.34250373, z: -0.21709946, w: -0.87781453}
        tangentMode: 0
        weightedMode: 0
        inWeight: {x: 0.33333334, y: 0.33333334, z: 0.33333334, w: 0.33333334}
        outWeight: {x: 0.33333334, y: 0.33333334, z: 0.33333334, w: 0.33333334}
      - serializedVersion: 3
        time: 0.26666668
        value: {x: -0.54255664, y: 0.014306821, z: 0.022858527, w: 0.83958626}
        inSlope: {x: -2.096325, y: 0.21465099, z: -0.26385975, w: -1.3443769}
        outSlope: {x: -2.096325, y: 0.21465099, z: -0.26385975, w: -1.3443769}
        tangentMode: 0
        weightedMode: 0
        inWeight: {x: 0.33333334, y: 0.33333334, z: 0.33333334, w: 0.33333334}
        outWeight: {x: 0.33333334, y: 0.33333334, z: 0.33333334, w: 0.33333334}
      - serializedVersion: 3
        time: 0.43333337
        value: {x: -0.7639318, y: 0.035431802, z: -0.025279848, w: 0.6438274}
        inSlope: {x: -0.50573236, y: 0.2318463, z: -0.5022915, w: -0.62557256}
        outSlope: {x: -0.50573236, y: 0.2318463, z: -0.5022915, w: -0.62557256}
        tangentMode: 0
        weightedMode: 0
        inWeight: {x: 0.33333334, y: 0.33333334, z: 0.33333334, w: 0.33333334}
        outWeight: {x: 0.33333334, y: 0.33333334, z: 0.33333334, w: 0.33333334}
      - serializedVersion: 3
        time: 0.4666667
        value: {x: -0.7752413, y: 0.044836264, z: -0.044742193, w: 0.6284814}
        inSlope: {x: -0.1996315, y: 0.11108328, z: -0.34396, w: -0.26906675}
        outSlope: {x: -0.1996315, y: 0.11108328, z: -0.34396, w: -0.26906675}
        tangentMode: 0
        weightedMode: 0
        inWeight: {x: 0.33333334, y: 0.33333334, z: 0.33333334, w: 0.33333334}
        outWeight: {x: 0.33333334, y: 0.33333334, z: 0.33333334, w: 0.33333334}
      m_PreInfinity: 2
      m_PostInfinity: 2
      m_RotationOrder: 4
    path: mixamorig:Hips/mixamorig:LeftUpLeg/mixamorig:LeftLeg
  - curve:
      serializedVersion: 2
      m_Curve:
      - serializedVersion: 3
        time: 0
        value: {x: 0.5526169, y: 0.06935427, z: -0.042352166, w: 0.82946426}
        inSlope: {x: 0.28375983, y: 0.1572845, z: 0.22112219, w: -0.19477306}
        outSlope: {x: 0.28375983, y: 0.1572845, z: 0.22112219, w: -0.19477306}
        tangentMode: 0
        weightedMode: 0
        inWeight: {x: 0.33333334, y: 0.33333334, z: 0.33333334, w: 0.33333334}
        outWeight: {x: 0.33333334, y: 0.33333334, z: 0.33333334, w: 0.33333334}
      - serializedVersion: 3
        time: 0.13333334
        value: {x: 0.6003666, y: 0.0877328, z: -0.018721336, w: 0.79467756}
        inSlope: {x: 0.55444396, y: -0.023427868, z: -0.10713462, w: -0.42165312}
        outSlope: {x: 0.55444396, y: -0.023427868, z: -0.10713462, w: -0.42165312}
        tangentMode: 0
        weightedMode: 0
        inWeight: {x: 0.33333334, y: 0.33333334, z: 0.33333334, w: 0.33333334}
        outWeight: {x: 0.33333334, y: 0.33333334, z: 0.33333334, w: 0.33333334}
      - serializedVersion: 3
        time: 0.26666668
        value: {x: 0.6851216, y: 0.09090763, z: -0.024449592, w: 0.7223202}
        inSlope: {x: 0.5554954, y: 0.13547939, z: 0.19846314, w: -0.5359233}
        outSlope: {x: 0.5554954, y: 0.13547939, z: 0.19846314, w: -0.5359233}
        tangentMode: 0
        weightedMode: 0
        inWeight: {x: 0.33333334, y: 0.33333334, z: 0.33333334, w: 0.33333334}
        outWeight: {x: 0.33333334, y: 0.33333334, z: 0.33333334, w: 0.33333334}
      - serializedVersion: 3
        time: 0.43333337
        value: {x: 0.74806774, y: 0.11401168, z: 0.016240532, w: 0.65355366}
        inSlope: {x: 0.2208102, y: 0.14515436, z: 0.22073548, w: -0.28255913}
        outSlope: {x: 0.2208102, y: 0.14515436, z: 0.22073548, w: -0.28255913}
        tangentMode: 0
        weightedMode: 0
        inWeight: {x: 0.33333334, y: 0.33333334, z: 0.33333334, w: 0.33333334}
        outWeight: {x: 0.33333334, y: 0.33333334, z: 0.33333334, w: 0.33333334}
      - serializedVersion: 3
        time: 0.4666667
        value: {x: 0.7543674, y: 0.11939521, z: 0.022612793, w: 0.6451072}
        inSlope: {x: 0.14912999, y: 0.35395384, z: -0.121483356, w: -0.24065506}
        outSlope: {x: 0.14912999, y: 0.35395384, z: -0.121483356, w: -0.24065506}
        tangentMode: 0
        weightedMode: 0
        inWeight: {x: 0.33333334, y: 0.33333334, z: 0.33333334, w: 0.33333334}
        outWeight: {x: 0.33333334, y: 0.33333334, z: 0.33333334, w: 0.33333334}
      m_PreInfinity: 2
      m_PostInfinity: 2
      m_RotationOrder: 4
    path: mixamorig:Hips/mixamorig:LeftUpLeg/mixamorig:LeftLeg/mixamorig:LeftFoot
  - curve:
      serializedVersion: 2
      m_Curve:
      - serializedVersion: 3
        time: 0
        value: {x: 0.24755046, y: -0.1982756, z: 0.052679818, w: 0.94690573}
        inSlope: {x: 0.046956535, y: -0.017113388, z: -0.017983204, w: -0.014913081}
        outSlope: {x: 0.046956535, y: -0.017113388, z: -0.017983204, w: -0.014913081}
        tangentMode: 0
        weightedMode: 0
        inWeight: {x: 0.33333334, y: 0.33333334, z: 0.33333334, w: 0.33333334}
        outWeight: {x: 0.33333334, y: 0.33333334, z: 0.33333334, w: 0.33333334}
      - serializedVersion: 3
        time: 0.20000002
        value: {x: 0.25711864, y: -0.197904, z: 0.050148554, w: 0.9445683}
        inSlope: {x: -0.021129997, y: -0.0025051835, z: 0.0051092734, w: 0.0049397354}
        outSlope: {x: -0.021129997, y: -0.0025051835, z: 0.0051092734, w: 0.0049397354}
        tangentMode: 0
        weightedMode: 0
        inWeight: {x: 0.33333334, y: 0.33333334, z: 0.33333334, w: 0.33333334}
        outWeight: {x: 0.33333334, y: 0.33333334, z: 0.33333334, w: 0.33333334}
      - serializedVersion: 3
        time: 0.43333337
        value: {x: 0.26340047, y: -0.19715291, z: 0.048626393, w: 0.94307286}
        inSlope: {x: 0.06283925, y: 0.007553772, z: -0.01524579, w: -0.015136601}
        outSlope: {x: 0.06283925, y: 0.007553772, z: -0.01524579, w: -0.015136601}
        tangentMode: 0
        weightedMode: 0
        inWeight: {x: 0.33333334, y: 0.33333334, z: 0.33333334, w: 0.33333334}
        outWeight: {x: 0.33333334, y: 0.33333334, z: 0.33333334, w: 0.33333334}
      - serializedVersion: 3
        time: 0.46666667
        value: {x: 0.26401258, y: -0.19708264, z: 0.048479512, w: 0.9429399}
        inSlope: {x: -0.01602924, y: -0.0020980241, z: 0.0039734473, w: 0.0046148305}
        outSlope: {x: -0.01602924, y: -0.0020980241, z: 0.0039734473, w: 0.0046148305}
        tangentMode: 0
        weightedMode: 0
        inWeight: {x: 0.33333334, y: 0.33333334, z: 0.33333334, w: 0.33333334}
        outWeight: {x: 0.33333334, y: 0.33333334, z: 0.33333334, w: 0.33333334}
      m_PreInfinity: 2
      m_PostInfinity: 2
      m_RotationOrder: 4
    path: mixamorig:Hips/mixamorig:LeftUpLeg/mixamorig:LeftLeg/mixamorig:LeftFoot/mixamorig:LeftToeBase
  - curve:
      serializedVersion: 2
      m_Curve:
      - serializedVersion: 3
        time: 0
        value: {x: 0.10271861, y: 0.040695217, z: 0.9935103, w: -0.027020695}
        inSlope: {x: -0.34032917, y: 0.8931504, z: -0.015358328, w: 0.05198551}
        outSlope: {x: -0.34032917, y: 0.8931504, z: -0.015358328, w: 0.05198551}
        tangentMode: 0
        weightedMode: 0
        inWeight: {x: 0.33333334, y: 0.33333334, z: 0.33333334, w: 0.33333334}
        outWeight: {x: 0.33333334, y: 0.33333334, z: 0.33333334, w: 0.33333334}
      - serializedVersion: 3
        time: 0.10000001
        value: {x: 0.07338364, y: 0.1713357, z: 0.981998, w: -0.03063894}
        inSlope: {x: -0.079102576, y: 1.963952, z: -0.36156535, w: -0.24426939}
        outSlope: {x: -0.079102576, y: 1.963952, z: -0.36156535, w: -0.24426939}
        tangentMode: 0
        weightedMode: 0
        inWeight: {x: 0.33333334, y: 0.33333334, z: 0.33333334, w: 0.33333334}
        outWeight: {x: 0.33333334, y: 0.33333334, z: 0.33333334, w: 0.33333334}
      - serializedVersion: 3
        time: 0.20000002
        value: {x: 0.07534338, y: 0.40155047, z: 0.91145104, w: -0.048348375}
        inSlope: {x: -0.16378473, y: 2.3887575, z: -1.0427122, w: 0.12303896}
        outSlope: {x: -0.16378473, y: 2.3887575, z: -1.0427122, w: 0.12303896}
        tangentMode: 0
        weightedMode: 0
        inWeight: {x: 0.33333334, y: 0.33333334, z: 0.33333334, w: 0.33333334}
        outWeight: {x: 0.33333334, y: 0.33333334, z: 0.33333334, w: 0.33333334}
      - serializedVersion: 3
        time: 0.3
        value: {x: 0.057782225, y: 0.63739747, z: 0.76742536, w: -0.03800031}
        inSlope: {x: 0.10336323, y: 2.0000823, z: -1.6499386, w: -0.0024260024}
        outSlope: {x: 0.10336323, y: 2.0000823, z: -1.6499386, w: -0.0024260024}
        tangentMode: 0
        weightedMode: 0
        inWeight: {x: 0.33333334, y: 0.33333334, z: 0.33333334, w: 0.33333334}
        outWeight: {x: 0.33333334, y: 0.33333334, z: 0.33333334, w: 0.33333334}
      - serializedVersion: 3
        time: 0.40000004
        value: {x: 0.06076537, y: 0.7696974, z: 0.6347223, w: -0.031639118}
        inSlope: {x: -0.3744095, y: 0.68266296, z: -0.7718544, w: 0.1577653}
        outSlope: {x: -0.3744095, y: 0.68266296, z: -0.7718544, w: 0.1577653}
        tangentMode: 0
        weightedMode: 0
        inWeight: {x: 0.33333334, y: 0.33333334, z: 0.33333334, w: 0.33333334}
        outWeight: {x: 0.33333334, y: 0.33333334, z: 0.33333334, w: 0.33333334}
      - serializedVersion: 3
        time: 0.46666667
        value: {x: 0.024767114, y: 0.78887355, z: 0.61541945, w: -0.017438143}
        inSlope: {x: -0.6439378, y: -0.11287809, z: 0.17897846, w: 0.26589498}
        outSlope: {x: -0.6439378, y: -0.11287809, z: 0.17897846, w: 0.26589498}
        tangentMode: 0
        weightedMode: 0
        inWeight: {x: 0.33333334, y: 0.33333334, z: 0.33333334, w: 0.33333334}
        outWeight: {x: 0.33333334, y: 0.33333334, z: 0.33333334, w: 0.33333334}
      m_PreInfinity: 2
      m_PostInfinity: 2
      m_RotationOrder: 4
    path: mixamorig:Hips/mixamorig:RightUpLeg
  - curve:
      serializedVersion: 2
      m_Curve:
      - serializedVersion: 3
        time: 0
        value: {x: -0.16475156, y: 0.015032518, z: -0.04226281, w: 0.9853146}
        inSlope: {x: -0.5951415, y: -0.31336603, z: 0.08859492, w: -0.09888231}
        outSlope: {x: -0.5951415, y: -0.31336603, z: 0.08859492, w: -0.09888231}
        tangentMode: 0
        weightedMode: 0
        inWeight: {x: 0.33333334, y: 0.33333334, z: 0.33333334, w: 0.33333334}
        outWeight: {x: 0.33333334, y: 0.33333334, z: 0.33333334, w: 0.33333334}
      - serializedVersion: 3
        time: 0.10000001
        value: {x: -0.2566836, y: -0.009361787, z: -0.035166662, w: 0.9658101}
        inSlope: {x: -1.4968451, y: 0.030912638, z: -0.005565699, w: -0.41064173}
        outSlope: {x: -1.4968451, y: 0.030912638, z: -0.005565699, w: -0.41064173}
        tangentMode: 0
        weightedMode: 0
        inWeight: {x: 0.33333334, y: 0.33333334, z: 0.33333334, w: 0.33333334}
        outWeight: {x: 0.33333334, y: 0.33333334, z: 0.33333334, w: 0.33333334}
      - serializedVersion: 3
        time: 0.16666667
        value: {x: -0.37202722, y: 0.0005105846, z: -0.038132936, w: 0.9274381}
        inSlope: {x: -1.6746986, y: 0.03397143, z: 0.008162899, w: -0.6678762}
        outSlope: {x: -1.6746986, y: 0.03397143, z: 0.008162899, w: -0.6678762}
        tangentMode: 0
        weightedMode: 0
        inWeight: {x: 0.33333334, y: 0.33333334, z: 0.33333334, w: 0.33333334}
        outWeight: {x: 0.33333334, y: 0.33333334, z: 0.33333334, w: 0.33333334}
      - serializedVersion: 3
        time: 0.23333335
        value: {x: -0.48835972, y: -0.0084064985, z: -0.029566247, w: 0.8721009}
        inSlope: {x: -1.9247613, y: -0.15591127, z: 0.17924783, w: -1.080722}
        outSlope: {x: -1.9247613, y: -0.15591127, z: 0.17924783, w: -1.080722}
        tangentMode: 0
        weightedMode: 0
        inWeight: {x: 0.33333334, y: 0.33333334, z: 0.33333334, w: 0.33333334}
        outWeight: {x: 0.33333334, y: 0.33333334, z: 0.33333334, w: 0.33333334}
      - serializedVersion: 3
        time: 0.33333334
        value: {x: -0.6667047, y: -0.006495054, z: -0.02613033, w: 0.74483544}
        inSlope: {x: -1.3824885, y: 0.12090354, z: -0.110715225, w: -1.2257991}
        outSlope: {x: -1.3824885, y: 0.12090354, z: -0.110715225, w: -1.2257991}
        tangentMode: 0
        weightedMode: 0
        inWeight: {x: 0.33333334, y: 0.33333334, z: 0.33333334, w: 0.33333334}
        outWeight: {x: 0.33333334, y: 0.33333334, z: 0.33333334, w: 0.33333334}
      - serializedVersion: 3
        time: 0.4666667
        value: {x: -0.76991665, y: -0.02425204, z: 0.005163413, w: 0.63766253}
        inSlope: {x: -0.18841985, y: -0.4201147, z: 0.703675, w: -0.25063372}
        outSlope: {x: -0.18841985, y: -0.4201147, z: 0.703675, w: -0.25063372}
        tangentMode: 0
        weightedMode: 0
        inWeight: {x: 0.33333334, y: 0.33333334, z: 0.33333334, w: 0.33333334}
        outWeight: {x: 0.33333334, y: 0.33333334, z: 0.33333334, w: 0.33333334}
      m_PreInfinity: 2
      m_PostInfinity: 2
      m_RotationOrder: 4
    path: mixamorig:Hips/mixamorig:RightUpLeg/mixamorig:RightLeg
  - curve:
      serializedVersion: 2
      m_Curve:
      - serializedVersion: 3
        time: 0
        value: {x: 0.5924436, y: -0.039222192, z: 0.090838924, w: 0.79951274}
        inSlope: {x: 0.10067045, y: -0.007850826, z: -0.05719341, w: -0.06886661}
        outSlope: {x: 0.10067045, y: -0.007850826, z: -0.05719341, w: -0.06886661}
        tangentMode: 0
        weightedMode: 0
        inWeight: {x: 0.33333334, y: 0.33333334, z: 0.33333334, w: 0.33333334}
        outWeight: {x: 0.33333334, y: 0.33333334, z: 0.33333334, w: 0.33333334}
      - serializedVersion: 3
        time: 0.13333334
        value: {x: 0.62399006, y: -0.047614843, z: 0.077818185, w: 0.77608865}
        inSlope: {x: 0.36368343, y: -0.14076373, z: -0.14792787, w: -0.2850527}
        outSlope: {x: 0.36368343, y: -0.14076373, z: -0.14792787, w: -0.2850527}
        tangentMode: 0
        weightedMode: 0
        inWeight: {x: 0.33333334, y: 0.33333334, z: 0.33333334, w: 0.33333334}
        outWeight: {x: 0.33333334, y: 0.33333334, z: 0.33333334, w: 0.33333334}
      - serializedVersion: 3
        time: 0.26666668
        value: {x: 0.676014, y: -0.05315118, z: 0.07640397, w: 0.7309873}
        inSlope: {x: 0.4548401, y: -0.07730356, z: -0.079561144, w: -0.41754398}
        outSlope: {x: 0.4548401, y: -0.07730356, z: -0.079561144, w: -0.41754398}
        tangentMode: 0
        weightedMode: 0
        inWeight: {x: 0.33333334, y: 0.33333334, z: 0.33333334, w: 0.33333334}
        outWeight: {x: 0.33333334, y: 0.33333334, z: 0.33333334, w: 0.33333334}
      - serializedVersion: 3
        time: 0.43333337
        value: {x: 0.7307565, y: -0.04870329, z: 0.08415465, w: 0.67567813}
        inSlope: {x: 0.19061746, y: 0.051518198, z: -0.0047261645, w: -0.20184787}
        outSlope: {x: 0.19061746, y: 0.051518198, z: -0.0047261645, w: -0.20184787}
        tangentMode: 0
        weightedMode: 0
        inWeight: {x: 0.33333334, y: 0.33333334, z: 0.33333334, w: 0.33333334}
        outWeight: {x: 0.33333334, y: 0.33333334, z: 0.33333334, w: 0.33333334}
      - serializedVersion: 3
        time: 0.46666667
        value: {x: 0.73733914, y: -0.04641213, z: 0.08460552, w: 0.6686925}
        inSlope: {x: 0.18698694, y: 0.058966506, z: 0.05343393, w: -0.20438196}
        outSlope: {x: 0.18698694, y: 0.058966506, z: 0.05343393, w: -0.20438196}
        tangentMode: 0
        weightedMode: 0
        inWeight: {x: 0.33333334, y: 0.33333334, z: 0.33333334, w: 0.33333334}
        outWeight: {x: 0.33333334, y: 0.33333334, z: 0.33333334, w: 0.33333334}
      m_PreInfinity: 2
      m_PostInfinity: 2
      m_RotationOrder: 4
    path: mixamorig:Hips/mixamorig:RightUpLeg/mixamorig:RightLeg/mixamorig:RightFoot
  - curve:
      serializedVersion: 2
      m_Curve:
      - serializedVersion: 3
        time: 0
        value: {x: 0.25778678, y: 0.19763018, z: -0.04843015, w: 0.94453317}
        inSlope: {x: -0.0049772854, y: 0.00058919186, z: -0.0012096761, w: 0.0011712312}
        outSlope: {x: -0.0049772854, y: 0.00058919186, z: -0.0012096761, w: 0.0011712312}
        tangentMode: 0
        weightedMode: 0
        inWeight: {x: 0.33333334, y: 0.33333334, z: 0.33333334, w: 0.33333334}
        outWeight: {x: 0.33333334, y: 0.33333334, z: 0.33333334, w: 0.33333334}
      - serializedVersion: 3
        time: 0.46666667
        value: {x: 0.25589016, y: 0.19785936, z: -0.048893966, w: 0.94500375}
        inSlope: {x: 0.055030294, y: -0.0065630856, z: 0.013416744, w: -0.013283416}
        outSlope: {x: 0.055030294, y: -0.0065630856, z: 0.013416744, w: -0.013283416}
        tangentMode: 0
        weightedMode: 0
        inWeight: {x: 0.33333334, y: 0.33333334, z: 0.33333334, w: 0.33333334}
        outWeight: {x: 0.33333334, y: 0.33333334, z: 0.33333334, w: 0.33333334}
      m_PreInfinity: 2
      m_PostInfinity: 2
      m_RotationOrder: 4
    path: mixamorig:Hips/mixamorig:RightUpLeg/mixamorig:RightLeg/mixamorig:RightFoot/mixamorig:RightToeBase
  m_CompressedRotationCurves: []
  m_EulerCurves: []
  m_PositionCurves:
  - curve:
      serializedVersion: 2
      m_Curve:
      - serializedVersion: 3
        time: 0
        value: {x: -0.0015763914, y: 1.0404888, z: 0.0033378045}
        inSlope: {x: -0.008105103, y: -0.08198956, z: -0.29360127}
        outSlope: {x: -0.008105103, y: -0.08198956, z: -0.29360127}
        tangentMode: 0
        weightedMode: 0
        inWeight: {x: 0.33333334, y: 0.33333334, z: 0.33333334}
        outWeight: {x: 0.33333334, y: 0.33333334, z: 0.33333334}
      - serializedVersion: 3
        time: 0.033333335
        value: {x: -0.0018465614, y: 1.0377555, z: -0.0064489054}
        inSlope: {x: -0.023453588, y: -0.11664009, z: -0.33868498}
        outSlope: {x: -0.0234536, y: -0.116667114, z: -0.33868518}
        tangentMode: 0
        weightedMode: 0
        inWeight: {x: 0.33333334, y: 0.33333334, z: 0.33333334}
        outWeight: {x: 0.33333334, y: 0.33333334, z: 0.33333334}
      - serializedVersion: 3
        time: 0.06666667
        value: {x: -0.0031399643, y: 1.0327115, z: -0.019241199}
        inSlope: {x: -0.065080754, y: -0.21062636, z: -0.41650435}
        outSlope: {x: -0.06508077, y: -0.21060747, z: -0.41650468}
        tangentMode: 0
        weightedMode: 0
        inWeight: {x: 0.33333334, y: 0.33333334, z: 0.33333334}
        outWeight: {x: 0.33333334, y: 0.33333334, z: 0.33333334}
      - serializedVersion: 3
        time: 0.1
        value: {x: -0.0061852797, y: 1.023714, z: -0.03421588}
        inSlope: {x: -0.11650507, y: -0.34742212, z: -0.4590661}
        outSlope: {x: -0.11650503, y: -0.34742978, z: -0.45906565}
        tangentMode: 0
        weightedMode: 0
        inWeight: {x: 0.33333334, y: 0.33333334, z: 0.33333334}
        outWeight: {x: 0.33333334, y: 0.33333334, z: 0.33333334}
      - serializedVersion: 3
        time: 0.13333334
        value: {x: -0.010906972, y: 1.0095493, z: -0.049845617}
        inSlope: {x: -0.15570009, y: -0.50366235, z: -0.46560508}
        outSlope: {x: -0.15570076, y: -0.50365895, z: -0.46560636}
        tangentMode: 0
        weightedMode: 0
        inWeight: {x: 0.33333334, y: 0.33333334, z: 0.33333334}
        outWeight: {x: 0.33333334, y: 0.33333334, z: 0.33333334}
      - serializedVersion: 3
        time: 0.2
        value: {x: -0.022087164, y: 0.9652389, z: -0.08158571}
        inSlope: {x: -0.15573935, y: -0.91949564, z: -0.5199126}
        outSlope: {x: -0.15573953, y: -0.91947305, z: -0.5199122}
        tangentMode: 0
        weightedMode: 0
        inWeight: {x: 0.33333334, y: 0.33333334, z: 0.33333334}
        outWeight: {x: 0.33333334, y: 0.33333334, z: 0.33333334}
      - serializedVersion: 3
        time: 0.23333333
        value: {x: -0.026947899, y: 0.928838, z: -0.09991704}
        inSlope: {x: -0.12833746, y: -1.1927624, z: -0.5706695}
        outSlope: {x: -0.12833692, y: -1.1927725, z: -0.5706688}
        tangentMode: 0
        weightedMode: 0
        inWeight: {x: 0.33333334, y: 0.33333334, z: 0.33333334}
        outWeight: {x: 0.33333334, y: 0.33333334, z: 0.33333334}
      - serializedVersion: 3
        time: 0.3
        value: {x: -0.03425116, y: 0.8383588, z: -0.1366355}
        inSlope: {x: -0.109923206, y: -1.4091649, z: -0.43398973}
        outSlope: {x: -0.10992347, y: -1.4091637, z: -0.43398976}
        tangentMode: 0
        weightedMode: 0
        inWeight: {x: 0.33333334, y: 0.33333334, z: 0.33333334}
        outWeight: {x: 0.33333334, y: 0.33333334, z: 0.33333334}
      - serializedVersion: 3
        time: 0.4
        value: {x: -0.04301977, y: 0.7169422, z: -0.16139519}
        inSlope: {x: -0.042077202, y: -0.84124047, z: -0.07590036}
        outSlope: {x: -0.04207743, y: -0.84123474, z: -0.07590058}
        tangentMode: 0
        weightedMode: 0
        inWeight: {x: 0.33333334, y: 0.33333334, z: 0.33333334}
        outWeight: {x: 0.33333334, y: 0.33333334, z: 0.33333334}
      - serializedVersion: 3
        time: 0.46666667
        value: {x: -0.04436255, y: 0.6848665, z: -0.15667368}
        inSlope: {x: -0.0071313246, y: -0.088504, z: 0.19525392}
        outSlope: {x: -0.0071313805, y: -0.08851713, z: 0.19525304}
        tangentMode: 0
        weightedMode: 0
        inWeight: {x: 0.33333334, y: 0.33333334, z: 0.33333334}
        outWeight: {x: 0.33333334, y: 0.33333334, z: 0.33333334}
      m_PreInfinity: 2
      m_PostInfinity: 2
      m_RotationOrder: 4
    path: mixamorig:Hips
  m_ScaleCurves:
  - curve:
      serializedVersion: 2
      m_Curve:
      - serializedVersion: 3
        time: 0
        value: {x: 1, y: 1, z: 1}
        inSlope: {x: 0, y: 0, z: 0}
        outSlope: {x: 0, y: 0, z: 0}
        tangentMode: 0
        weightedMode: 0
        inWeight: {x: 0.33333334, y: 0.33333334, z: 0.33333334}
        outWeight: {x: 0.33333334, y: 0.33333334, z: 0.33333334}
      - serializedVersion: 3
        time: 0.46666667
        value: {x: 1, y: 1, z: 1}
        inSlope: {x: 0, y: 0, z: 0}
        outSlope: {x: 0, y: 0, z: 0}
        tangentMode: 0
        weightedMode: 0
        inWeight: {x: 0.33333334, y: 0.33333334, z: 0.33333334}
        outWeight: {x: 0.33333334, y: 0.33333334, z: 0.33333334}
      m_PreInfinity: 2
      m_PostInfinity: 2
      m_RotationOrder: 4
    path: mixamorig:Hips/mixamorig:Spine
  - curve:
      serializedVersion: 2
      m_Curve:
      - serializedVersion: 3
        time: 0
        value: {x: 1, y: 1, z: 1}
        inSlope: {x: 0, y: 0, z: 0}
        outSlope: {x: 0, y: 0, z: 0}
        tangentMode: 0
        weightedMode: 0
        inWeight: {x: 0.33333334, y: 0.33333334, z: 0.33333334}
        outWeight: {x: 0.33333334, y: 0.33333334, z: 0.33333334}
      - serializedVersion: 3
        time: 0.46666667
        value: {x: 1, y: 1, z: 1}
        inSlope: {x: 0, y: 0, z: 0}
        outSlope: {x: 0, y: 0, z: 0}
        tangentMode: 0
        weightedMode: 0
        inWeight: {x: 0.33333334, y: 0.33333334, z: 0.33333334}
        outWeight: {x: 0.33333334, y: 0.33333334, z: 0.33333334}
      m_PreInfinity: 2
      m_PostInfinity: 2
      m_RotationOrder: 4
    path: mixamorig:Hips/mixamorig:Spine/mixamorig:Spine1/mixamorig:Spine2/mixamorig:Neck
  - curve:
      serializedVersion: 2
      m_Curve:
      - serializedVersion: 3
        time: 0
        value: {x: 1, y: 1, z: 1}
        inSlope: {x: 0, y: 0, z: 0}
        outSlope: {x: 0, y: 0, z: 0}
        tangentMode: 0
        weightedMode: 0
        inWeight: {x: 0.33333334, y: 0.33333334, z: 0.33333334}
        outWeight: {x: 0.33333334, y: 0.33333334, z: 0.33333334}
      - serializedVersion: 3
        time: 0.46666667
        value: {x: 1, y: 1, z: 1}
        inSlope: {x: 0, y: 0, z: 0}
        outSlope: {x: 0, y: 0, z: 0}
        tangentMode: 0
        weightedMode: 0
        inWeight: {x: 0.33333334, y: 0.33333334, z: 0.33333334}
        outWeight: {x: 0.33333334, y: 0.33333334, z: 0.33333334}
      m_PreInfinity: 2
      m_PostInfinity: 2
      m_RotationOrder: 4
    path: mixamorig:Hips/mixamorig:Spine/mixamorig:Spine1/mixamorig:Spine2/mixamorig:LeftShoulder
  - curve:
      serializedVersion: 2
      m_Curve:
      - serializedVersion: 3
        time: 0
        value: {x: 1, y: 1, z: 1}
        inSlope: {x: 0, y: 0, z: 0}
        outSlope: {x: 0, y: 0, z: 0}
        tangentMode: 0
        weightedMode: 0
        inWeight: {x: 0.33333334, y: 0.33333334, z: 0.33333334}
        outWeight: {x: 0.33333334, y: 0.33333334, z: 0.33333334}
      - serializedVersion: 3
        time: 0.46666667
        value: {x: 1, y: 1, z: 1}
        inSlope: {x: 0, y: 0, z: 0}
        outSlope: {x: 0, y: 0, z: 0}
        tangentMode: 0
        weightedMode: 0
        inWeight: {x: 0.33333334, y: 0.33333334, z: 0.33333334}
        outWeight: {x: 0.33333334, y: 0.33333334, z: 0.33333334}
      m_PreInfinity: 2
      m_PostInfinity: 2
      m_RotationOrder: 4
    path: mixamorig:Hips/mixamorig:Spine/mixamorig:Spine1/mixamorig:Spine2/mixamorig:LeftShoulder/mixamorig:LeftArm
  - curve:
      serializedVersion: 2
      m_Curve:
      - serializedVersion: 3
        time: 0
        value: {x: 1, y: 1, z: 1}
        inSlope: {x: 0, y: 0, z: 0}
        outSlope: {x: 0, y: 0, z: 0}
        tangentMode: 0
        weightedMode: 0
        inWeight: {x: 0.33333334, y: 0.33333334, z: 0.33333334}
        outWeight: {x: 0.33333334, y: 0.33333334, z: 0.33333334}
      - serializedVersion: 3
        time: 0.46666667
        value: {x: 1, y: 1, z: 1}
        inSlope: {x: 0, y: 0, z: 0}
        outSlope: {x: 0, y: 0, z: 0}
        tangentMode: 0
        weightedMode: 0
        inWeight: {x: 0.33333334, y: 0.33333334, z: 0.33333334}
        outWeight: {x: 0.33333334, y: 0.33333334, z: 0.33333334}
      m_PreInfinity: 2
      m_PostInfinity: 2
      m_RotationOrder: 4
    path: mixamorig:Hips/mixamorig:Spine/mixamorig:Spine1/mixamorig:Spine2/mixamorig:LeftShoulder/mixamorig:LeftArm/mixamorig:LeftForeArm
  - curve:
      serializedVersion: 2
      m_Curve:
      - serializedVersion: 3
        time: 0
        value: {x: 1, y: 1, z: 1}
        inSlope: {x: 0, y: 0, z: 0}
        outSlope: {x: 0, y: 0, z: 0}
        tangentMode: 0
        weightedMode: 0
        inWeight: {x: 0.33333334, y: 0.33333334, z: 0.33333334}
        outWeight: {x: 0.33333334, y: 0.33333334, z: 0.33333334}
      - serializedVersion: 3
        time: 0.46666667
        value: {x: 1, y: 1, z: 1}
        inSlope: {x: 0, y: 0, z: 0}
        outSlope: {x: 0, y: 0, z: 0}
        tangentMode: 0
        weightedMode: 0
        inWeight: {x: 0.33333334, y: 0.33333334, z: 0.33333334}
        outWeight: {x: 0.33333334, y: 0.33333334, z: 0.33333334}
      m_PreInfinity: 2
      m_PostInfinity: 2
      m_RotationOrder: 4
    path: mixamorig:Hips/mixamorig:Spine/mixamorig:Spine1/mixamorig:Spine2/mixamorig:LeftShoulder/mixamorig:LeftArm/mixamorig:LeftForeArm/mixamorig:LeftHand
  - curve:
      serializedVersion: 2
      m_Curve:
      - serializedVersion: 3
        time: 0
        value: {x: 1, y: 1, z: 1}
        inSlope: {x: 0, y: 0, z: 0}
        outSlope: {x: 0, y: 0, z: 0}
        tangentMode: 0
        weightedMode: 0
        inWeight: {x: 0.33333334, y: 0.33333334, z: 0.33333334}
        outWeight: {x: 0.33333334, y: 0.33333334, z: 0.33333334}
      - serializedVersion: 3
        time: 0.46666667
        value: {x: 1, y: 1, z: 1}
        inSlope: {x: 0, y: 0, z: 0}
        outSlope: {x: 0, y: 0, z: 0}
        tangentMode: 0
        weightedMode: 0
        inWeight: {x: 0.33333334, y: 0.33333334, z: 0.33333334}
        outWeight: {x: 0.33333334, y: 0.33333334, z: 0.33333334}
      m_PreInfinity: 2
      m_PostInfinity: 2
      m_RotationOrder: 4
    path: mixamorig:Hips/mixamorig:Spine/mixamorig:Spine1/mixamorig:Spine2/mixamorig:LeftShoulder/mixamorig:LeftArm/mixamorig:LeftForeArm/mixamorig:LeftHand/mixamorig:LeftHandIndex1
  - curve:
      serializedVersion: 2
      m_Curve:
      - serializedVersion: 3
        time: 0
        value: {x: 1, y: 1, z: 1}
        inSlope: {x: 0, y: 0, z: 0}
        outSlope: {x: 0, y: 0, z: 0}
        tangentMode: 0
        weightedMode: 0
        inWeight: {x: 0.33333334, y: 0.33333334, z: 0.33333334}
        outWeight: {x: 0.33333334, y: 0.33333334, z: 0.33333334}
      - serializedVersion: 3
        time: 0.46666667
        value: {x: 1, y: 1, z: 1}
        inSlope: {x: 0, y: 0, z: 0}
        outSlope: {x: 0, y: 0, z: 0}
        tangentMode: 0
        weightedMode: 0
        inWeight: {x: 0.33333334, y: 0.33333334, z: 0.33333334}
        outWeight: {x: 0.33333334, y: 0.33333334, z: 0.33333334}
      m_PreInfinity: 2
      m_PostInfinity: 2
      m_RotationOrder: 4
    path: mixamorig:Hips/mixamorig:Spine/mixamorig:Spine1/mixamorig:Spine2/mixamorig:RightShoulder
  - curve:
      serializedVersion: 2
      m_Curve:
      - serializedVersion: 3
        time: 0
        value: {x: 1, y: 1, z: 1}
        inSlope: {x: 0, y: 0, z: 0}
        outSlope: {x: 0, y: 0, z: 0}
        tangentMode: 0
        weightedMode: 0
        inWeight: {x: 0.33333334, y: 0.33333334, z: 0.33333334}
        outWeight: {x: 0.33333334, y: 0.33333334, z: 0.33333334}
      - serializedVersion: 3
        time: 0.46666667
        value: {x: 1, y: 1, z: 1}
        inSlope: {x: 0, y: 0, z: 0}
        outSlope: {x: 0, y: 0, z: 0}
        tangentMode: 0
        weightedMode: 0
        inWeight: {x: 0.33333334, y: 0.33333334, z: 0.33333334}
        outWeight: {x: 0.33333334, y: 0.33333334, z: 0.33333334}
      m_PreInfinity: 2
      m_PostInfinity: 2
      m_RotationOrder: 4
    path: mixamorig:Hips/mixamorig:Spine/mixamorig:Spine1/mixamorig:Spine2/mixamorig:RightShoulder/mixamorig:RightArm
  - curve:
      serializedVersion: 2
      m_Curve:
      - serializedVersion: 3
        time: 0
        value: {x: 1, y: 1, z: 1}
        inSlope: {x: 0, y: 0, z: 0}
        outSlope: {x: 0, y: 0, z: 0}
        tangentMode: 0
        weightedMode: 0
        inWeight: {x: 0.33333334, y: 0.33333334, z: 0.33333334}
        outWeight: {x: 0.33333334, y: 0.33333334, z: 0.33333334}
      - serializedVersion: 3
        time: 0.46666667
        value: {x: 1, y: 1, z: 1}
        inSlope: {x: 0, y: 0, z: 0}
        outSlope: {x: 0, y: 0, z: 0}
        tangentMode: 0
        weightedMode: 0
        inWeight: {x: 0.33333334, y: 0.33333334, z: 0.33333334}
        outWeight: {x: 0.33333334, y: 0.33333334, z: 0.33333334}
      m_PreInfinity: 2
      m_PostInfinity: 2
      m_RotationOrder: 4
    path: mixamorig:Hips/mixamorig:Spine/mixamorig:Spine1/mixamorig:Spine2/mixamorig:RightShoulder/mixamorig:RightArm/mixamorig:RightForeArm
  - curve:
      serializedVersion: 2
      m_Curve:
      - serializedVersion: 3
        time: 0
        value: {x: 1, y: 1, z: 1}
        inSlope: {x: 0, y: 0, z: 0}
        outSlope: {x: 0, y: 0, z: 0}
        tangentMode: 0
        weightedMode: 0
        inWeight: {x: 0.33333334, y: 0.33333334, z: 0.33333334}
        outWeight: {x: 0.33333334, y: 0.33333334, z: 0.33333334}
      - serializedVersion: 3
        time: 0.46666667
        value: {x: 1, y: 1, z: 1}
        inSlope: {x: 0, y: 0, z: 0}
        outSlope: {x: 0, y: 0, z: 0}
        tangentMode: 0
        weightedMode: 0
        inWeight: {x: 0.33333334, y: 0.33333334, z: 0.33333334}
        outWeight: {x: 0.33333334, y: 0.33333334, z: 0.33333334}
      m_PreInfinity: 2
      m_PostInfinity: 2
      m_RotationOrder: 4
    path: mixamorig:Hips/mixamorig:Spine/mixamorig:Spine1/mixamorig:Spine2/mixamorig:RightShoulder/mixamorig:RightArm/mixamorig:RightForeArm/mixamorig:RightHand
  - curve:
      serializedVersion: 2
      m_Curve:
      - serializedVersion: 3
        time: 0
        value: {x: 1, y: 1, z: 1}
        inSlope: {x: 0, y: 0, z: 0}
        outSlope: {x: 0, y: 0, z: 0}
        tangentMode: 0
        weightedMode: 0
        inWeight: {x: 0.33333334, y: 0.33333334, z: 0.33333334}
        outWeight: {x: 0.33333334, y: 0.33333334, z: 0.33333334}
      - serializedVersion: 3
        time: 0.46666667
        value: {x: 1, y: 1, z: 1}
        inSlope: {x: 0, y: 0, z: 0}
        outSlope: {x: 0, y: 0, z: 0}
        tangentMode: 0
        weightedMode: 0
        inWeight: {x: 0.33333334, y: 0.33333334, z: 0.33333334}
        outWeight: {x: 0.33333334, y: 0.33333334, z: 0.33333334}
      m_PreInfinity: 2
      m_PostInfinity: 2
      m_RotationOrder: 4
    path: mixamorig:Hips/mixamorig:Spine/mixamorig:Spine1/mixamorig:Spine2/mixamorig:RightShoulder/mixamorig:RightArm/mixamorig:RightForeArm/mixamorig:RightHand/mixamorig:RightHandIndex1
  - curve:
      serializedVersion: 2
      m_Curve:
      - serializedVersion: 3
        time: 0
        value: {x: 1, y: 1, z: 1}
        inSlope: {x: 0, y: 0, z: 0}
        outSlope: {x: 0, y: 0, z: 0}
        tangentMode: 0
        weightedMode: 0
        inWeight: {x: 0.33333334, y: 0.33333334, z: 0.33333334}
        outWeight: {x: 0.33333334, y: 0.33333334, z: 0.33333334}
      - serializedVersion: 3
        time: 0.46666667
        value: {x: 1, y: 1, z: 1}
        inSlope: {x: 0, y: 0, z: 0}
        outSlope: {x: 0, y: 0, z: 0}
        tangentMode: 0
        weightedMode: 0
        inWeight: {x: 0.33333334, y: 0.33333334, z: 0.33333334}
        outWeight: {x: 0.33333334, y: 0.33333334, z: 0.33333334}
      m_PreInfinity: 2
      m_PostInfinity: 2
      m_RotationOrder: 4
    path: mixamorig:Hips/mixamorig:LeftUpLeg
  - curve:
      serializedVersion: 2
      m_Curve:
      - serializedVersion: 3
        time: 0
        value: {x: 1, y: 1, z: 1}
        inSlope: {x: 0, y: 0, z: 0}
        outSlope: {x: 0, y: 0, z: 0}
        tangentMode: 0
        weightedMode: 0
        inWeight: {x: 0.33333334, y: 0.33333334, z: 0.33333334}
        outWeight: {x: 0.33333334, y: 0.33333334, z: 0.33333334}
      - serializedVersion: 3
        time: 0.46666667
        value: {x: 1, y: 1, z: 1}
        inSlope: {x: 0, y: 0, z: 0}
        outSlope: {x: 0, y: 0, z: 0}
        tangentMode: 0
        weightedMode: 0
        inWeight: {x: 0.33333334, y: 0.33333334, z: 0.33333334}
        outWeight: {x: 0.33333334, y: 0.33333334, z: 0.33333334}
      m_PreInfinity: 2
      m_PostInfinity: 2
      m_RotationOrder: 4
    path: mixamorig:Hips/mixamorig:LeftUpLeg/mixamorig:LeftLeg
  - curve:
      serializedVersion: 2
      m_Curve:
      - serializedVersion: 3
        time: 0
        value: {x: 1, y: 1, z: 1}
        inSlope: {x: 0, y: 0, z: 0}
        outSlope: {x: 0, y: 0, z: 0}
        tangentMode: 0
        weightedMode: 0
        inWeight: {x: 0.33333334, y: 0.33333334, z: 0.33333334}
        outWeight: {x: 0.33333334, y: 0.33333334, z: 0.33333334}
      - serializedVersion: 3
        time: 0.46666667
        value: {x: 1, y: 1, z: 1}
        inSlope: {x: 0, y: 0, z: 0}
        outSlope: {x: 0, y: 0, z: 0}
        tangentMode: 0
        weightedMode: 0
        inWeight: {x: 0.33333334, y: 0.33333334, z: 0.33333334}
        outWeight: {x: 0.33333334, y: 0.33333334, z: 0.33333334}
      m_PreInfinity: 2
      m_PostInfinity: 2
      m_RotationOrder: 4
    path: mixamorig:Hips/mixamorig:LeftUpLeg/mixamorig:LeftLeg/mixamorig:LeftFoot
  - curve:
      serializedVersion: 2
      m_Curve:
      - serializedVersion: 3
        time: 0
        value: {x: 1, y: 1, z: 1}
        inSlope: {x: 0, y: 0, z: 0}
        outSlope: {x: 0, y: 0, z: 0}
        tangentMode: 0
        weightedMode: 0
        inWeight: {x: 0.33333334, y: 0.33333334, z: 0.33333334}
        outWeight: {x: 0.33333334, y: 0.33333334, z: 0.33333334}
      - serializedVersion: 3
        time: 0.46666667
        value: {x: 1, y: 1, z: 1}
        inSlope: {x: 0, y: 0, z: 0}
        outSlope: {x: 0, y: 0, z: 0}
        tangentMode: 0
        weightedMode: 0
        inWeight: {x: 0.33333334, y: 0.33333334, z: 0.33333334}
        outWeight: {x: 0.33333334, y: 0.33333334, z: 0.33333334}
      m_PreInfinity: 2
      m_PostInfinity: 2
      m_RotationOrder: 4
    path: mixamorig:Hips/mixamorig:LeftUpLeg/mixamorig:LeftLeg/mixamorig:LeftFoot/mixamorig:LeftToeBase
  - curve:
      serializedVersion: 2
      m_Curve:
      - serializedVersion: 3
        time: 0
        value: {x: 1, y: 1, z: 1}
        inSlope: {x: 0, y: 0, z: 0}
        outSlope: {x: 0, y: 0, z: 0}
        tangentMode: 0
        weightedMode: 0
        inWeight: {x: 0.33333334, y: 0.33333334, z: 0.33333334}
        outWeight: {x: 0.33333334, y: 0.33333334, z: 0.33333334}
      - serializedVersion: 3
        time: 0.46666667
        value: {x: 1, y: 1, z: 1}
        inSlope: {x: 0, y: 0, z: 0}
        outSlope: {x: 0, y: 0, z: 0}
        tangentMode: 0
        weightedMode: 0
        inWeight: {x: 0.33333334, y: 0.33333334, z: 0.33333334}
        outWeight: {x: 0.33333334, y: 0.33333334, z: 0.33333334}
      m_PreInfinity: 2
      m_PostInfinity: 2
      m_RotationOrder: 4
    path: mixamorig:Hips/mixamorig:RightUpLeg
  - curve:
      serializedVersion: 2
      m_Curve:
      - serializedVersion: 3
        time: 0
        value: {x: 1, y: 1, z: 1}
        inSlope: {x: 0, y: 0, z: 0}
        outSlope: {x: 0, y: 0, z: 0}
        tangentMode: 0
        weightedMode: 0
        inWeight: {x: 0.33333334, y: 0.33333334, z: 0.33333334}
        outWeight: {x: 0.33333334, y: 0.33333334, z: 0.33333334}
      - serializedVersion: 3
        time: 0.46666667
        value: {x: 1, y: 1, z: 1}
        inSlope: {x: 0, y: 0, z: 0}
        outSlope: {x: 0, y: 0, z: 0}
        tangentMode: 0
        weightedMode: 0
        inWeight: {x: 0.33333334, y: 0.33333334, z: 0.33333334}
        outWeight: {x: 0.33333334, y: 0.33333334, z: 0.33333334}
      m_PreInfinity: 2
      m_PostInfinity: 2
      m_RotationOrder: 4
    path: mixamorig:Hips/mixamorig:RightUpLeg/mixamorig:RightLeg
  - curve:
      serializedVersion: 2
      m_Curve:
      - serializedVersion: 3
        time: 0
        value: {x: 1, y: 1, z: 1}
        inSlope: {x: 0, y: 0, z: 0}
        outSlope: {x: 0, y: 0, z: 0}
        tangentMode: 0
        weightedMode: 0
        inWeight: {x: 0.33333334, y: 0.33333334, z: 0.33333334}
        outWeight: {x: 0.33333334, y: 0.33333334, z: 0.33333334}
      - serializedVersion: 3
        time: 0.46666667
        value: {x: 1, y: 1, z: 1}
        inSlope: {x: 0, y: 0, z: 0}
        outSlope: {x: 0, y: 0, z: 0}
        tangentMode: 0
        weightedMode: 0
        inWeight: {x: 0.33333334, y: 0.33333334, z: 0.33333334}
        outWeight: {x: 0.33333334, y: 0.33333334, z: 0.33333334}
      m_PreInfinity: 2
      m_PostInfinity: 2
      m_RotationOrder: 4
    path: mixamorig:Hips/mixamorig:RightUpLeg/mixamorig:RightLeg/mixamorig:RightFoot
  - curve:
      serializedVersion: 2
      m_Curve:
      - serializedVersion: 3
        time: 0
        value: {x: 1, y: 1, z: 1}
        inSlope: {x: 0, y: 0, z: 0}
        outSlope: {x: 0, y: 0, z: 0}
        tangentMode: 0
        weightedMode: 0
        inWeight: {x: 0.33333334, y: 0.33333334, z: 0.33333334}
        outWeight: {x: 0.33333334, y: 0.33333334, z: 0.33333334}
      - serializedVersion: 3
        time: 0.46666667
        value: {x: 1, y: 1, z: 1}
        inSlope: {x: 0, y: 0, z: 0}
        outSlope: {x: 0, y: 0, z: 0}
        tangentMode: 0
        weightedMode: 0
        inWeight: {x: 0.33333334, y: 0.33333334, z: 0.33333334}
        outWeight: {x: 0.33333334, y: 0.33333334, z: 0.33333334}
      m_PreInfinity: 2
      m_PostInfinity: 2
      m_RotationOrder: 4
    path: mixamorig:Hips/mixamorig:RightUpLeg/mixamorig:RightLeg/mixamorig:RightFoot/mixamorig:RightToeBase
  m_FloatCurves: []
  m_PPtrCurves: []
  m_SampleRate: 30
  m_WrapMode: 0
  m_Bounds:
    m_Center: {x: 0, y: 0, z: 0}
    m_Extent: {x: 0, y: 0, z: 0}
  m_ClipBindingConstant:
    genericBindings:
    - serializedVersion: 2
      path: 3817294574
      attribute: 2
      script: {fileID: 0}
      typeID: 4
      customType: 0
      isPPtrCurve: 0
    - serializedVersion: 2
      path: 3489429887
      attribute: 2
      script: {fileID: 0}
      typeID: 4
      customType: 0
      isPPtrCurve: 0
    - serializedVersion: 2
      path: 1256943279
      attribute: 2
      script: {fileID: 0}
      typeID: 4
      customType: 0
      isPPtrCurve: 0
    - serializedVersion: 2
      path: 2884633661
      attribute: 2
      script: {fileID: 0}
      typeID: 4
      customType: 0
      isPPtrCurve: 0
    - serializedVersion: 2
      path: 2257317975
      attribute: 1
      script: {fileID: 0}
      typeID: 4
      customType: 0
      isPPtrCurve: 0
    - serializedVersion: 2
      path: 2257317975
      attribute: 2
      script: {fileID: 0}
      typeID: 4
      customType: 0
      isPPtrCurve: 0
    - serializedVersion: 2
      path: 3756728238
      attribute: 2
      script: {fileID: 0}
      typeID: 4
      customType: 0
      isPPtrCurve: 0
    - serializedVersion: 2
      path: 769031542
      attribute: 2
      script: {fileID: 0}
      typeID: 4
      customType: 0
      isPPtrCurve: 0
    - serializedVersion: 2
      path: 2758719232
      attribute: 2
      script: {fileID: 0}
      typeID: 4
      customType: 0
      isPPtrCurve: 0
    - serializedVersion: 2
      path: 3234942999
      attribute: 2
      script: {fileID: 0}
      typeID: 4
      customType: 0
      isPPtrCurve: 0
    - serializedVersion: 2
      path: 1493459196
      attribute: 2
      script: {fileID: 0}
      typeID: 4
      customType: 0
      isPPtrCurve: 0
    - serializedVersion: 2
      path: 1247441380
      attribute: 2
      script: {fileID: 0}
      typeID: 4
      customType: 0
      isPPtrCurve: 0
    - serializedVersion: 2
      path: 1661316941
      attribute: 2
      script: {fileID: 0}
      typeID: 4
      customType: 0
      isPPtrCurve: 0
    - serializedVersion: 2
      path: 2652997584
      attribute: 2
      script: {fileID: 0}
      typeID: 4
      customType: 0
      isPPtrCurve: 0
    - serializedVersion: 2
      path: 4243345120
      attribute: 2
      script: {fileID: 0}
      typeID: 4
      customType: 0
      isPPtrCurve: 0
    - serializedVersion: 2
      path: 188368047
      attribute: 2
      script: {fileID: 0}
      typeID: 4
      customType: 0
      isPPtrCurve: 0
    - serializedVersion: 2
      path: 2299221583
      attribute: 2
      script: {fileID: 0}
      typeID: 4
      customType: 0
      isPPtrCurve: 0
    - serializedVersion: 2
      path: 966813807
      attribute: 2
      script: {fileID: 0}
      typeID: 4
      customType: 0
      isPPtrCurve: 0
    - serializedVersion: 2
      path: 3159457673
      attribute: 2
      script: {fileID: 0}
      typeID: 4
      customType: 0
      isPPtrCurve: 0
    - serializedVersion: 2
      path: 1689694167
      attribute: 2
      script: {fileID: 0}
      typeID: 4
      customType: 0
      isPPtrCurve: 0
    - serializedVersion: 2
      path: 2553124480
      attribute: 2
      script: {fileID: 0}
      typeID: 4
      customType: 0
      isPPtrCurve: 0
    - serializedVersion: 2
      path: 1664857788
      attribute: 2
      script: {fileID: 0}
      typeID: 4
      customType: 0
      isPPtrCurve: 0
    - serializedVersion: 2
      path: 1535726681
      attribute: 2
      script: {fileID: 0}
      typeID: 4
      customType: 0
      isPPtrCurve: 0
    - serializedVersion: 2
      path: 978753383
      attribute: 2
      script: {fileID: 0}
      typeID: 4
      customType: 0
      isPPtrCurve: 0
    - serializedVersion: 2
      path: 43917271
      attribute: 2
      script: {fileID: 0}
      typeID: 4
      customType: 0
      isPPtrCurve: 0
    - serializedVersion: 2
      path: 880086333
      attribute: 2
      script: {fileID: 0}
      typeID: 4
      customType: 0
      isPPtrCurve: 0
    - serializedVersion: 2
      path: 3661226250
      attribute: 2
      script: {fileID: 0}
      typeID: 4
      customType: 0
      isPPtrCurve: 0
    - serializedVersion: 2
      path: 2538846269
      attribute: 2
      script: {fileID: 0}
      typeID: 4
      customType: 0
      isPPtrCurve: 0
    - serializedVersion: 2
      path: 1453815488
      attribute: 2
      script: {fileID: 0}
      typeID: 4
      customType: 0
      isPPtrCurve: 0
    - serializedVersion: 2
      path: 3756728238
      attribute: 3
      script: {fileID: 0}
      typeID: 4
      customType: 0
      isPPtrCurve: 0
    - serializedVersion: 2
      path: 3234942999
      attribute: 3
      script: {fileID: 0}
      typeID: 4
      customType: 0
      isPPtrCurve: 0
    - serializedVersion: 2
      path: 1247441380
      attribute: 3
      script: {fileID: 0}
      typeID: 4
      customType: 0
      isPPtrCurve: 0
    - serializedVersion: 2
      path: 1661316941
      attribute: 3
      script: {fileID: 0}
      typeID: 4
      customType: 0
      isPPtrCurve: 0
    - serializedVersion: 2
      path: 2652997584
      attribute: 3
      script: {fileID: 0}
      typeID: 4
      customType: 0
      isPPtrCurve: 0
    - serializedVersion: 2
      path: 4243345120
      attribute: 3
      script: {fileID: 0}
      typeID: 4
      customType: 0
      isPPtrCurve: 0
    - serializedVersion: 2
      path: 188368047
      attribute: 3
      script: {fileID: 0}
      typeID: 4
      customType: 0
      isPPtrCurve: 0
    - serializedVersion: 2
      path: 2299221583
      attribute: 3
      script: {fileID: 0}
      typeID: 4
      customType: 0
      isPPtrCurve: 0
    - serializedVersion: 2
      path: 966813807
      attribute: 3
      script: {fileID: 0}
      typeID: 4
      customType: 0
      isPPtrCurve: 0
    - serializedVersion: 2
      path: 3159457673
      attribute: 3
      script: {fileID: 0}
      typeID: 4
      customType: 0
      isPPtrCurve: 0
    - serializedVersion: 2
      path: 1689694167
      attribute: 3
      script: {fileID: 0}
      typeID: 4
      customType: 0
      isPPtrCurve: 0
    - serializedVersion: 2
      path: 2553124480
      attribute: 3
      script: {fileID: 0}
      typeID: 4
      customType: 0
      isPPtrCurve: 0
    - serializedVersion: 2
      path: 1535726681
      attribute: 3
      script: {fileID: 0}
      typeID: 4
      customType: 0
      isPPtrCurve: 0
    - serializedVersion: 2
      path: 978753383
      attribute: 3
      script: {fileID: 0}
      typeID: 4
      customType: 0
      isPPtrCurve: 0
    - serializedVersion: 2
      path: 43917271
      attribute: 3
      script: {fileID: 0}
      typeID: 4
      customType: 0
      isPPtrCurve: 0
    - serializedVersion: 2
      path: 880086333
      attribute: 3
      script: {fileID: 0}
      typeID: 4
      customType: 0
      isPPtrCurve: 0
    - serializedVersion: 2
      path: 3661226250
      attribute: 3
      script: {fileID: 0}
      typeID: 4
      customType: 0
      isPPtrCurve: 0
    - serializedVersion: 2
      path: 2538846269
      attribute: 3
      script: {fileID: 0}
      typeID: 4
      customType: 0
      isPPtrCurve: 0
    - serializedVersion: 2
      path: 1453815488
      attribute: 3
      script: {fileID: 0}
      typeID: 4
      customType: 0
      isPPtrCurve: 0
    - serializedVersion: 2
      path: 2884633661
      attribute: 3
      script: {fileID: 0}
      typeID: 4
      customType: 0
      isPPtrCurve: 0
    pptrCurveMapping: []
  m_AnimationClipSettings:
    serializedVersion: 2
    m_AdditiveReferencePoseClip: {fileID: 0}
    m_AdditiveReferencePoseTime: 0
    m_StartTime: 0
    m_StopTime: 0.4666667
    m_OrientationOffsetY: 0
    m_Level: 0
    m_CycleOffset: 0
    m_HasAdditiveReferencePose: 0
    m_LoopTime: 0
    m_LoopBlend: 0
    m_LoopBlendOrientation: 0
    m_LoopBlendPositionY: 0
    m_LoopBlendPositionXZ: 0
    m_KeepOriginalOrientation: 0
    m_KeepOriginalPositionY: 1
    m_KeepOriginalPositionXZ: 0
    m_HeightFromFeet: 0
    m_Mirror: 0
  m_EditorCurves: []
  m_EulerEditorCurves: []
  m_HasGenericRootTransform: 0
  m_HasMotionFloatCurves: 0
  m_Events: []
