%YAML 1.1
%TAG !u! tag:unity3d.com,2011:
--- !u!21 &2100000
Material:
  serializedVersion: 6
  m_ObjectHideFlags: 0
  m_CorrespondingSourceObject: {fileID: 0}
  m_PrefabInstance: {fileID: 0}
  m_PrefabAsset: {fileID: 0}
  m_Name: Lipsar-DuffuseFull
  m_Shader: {fileID: 4800000, guid: 2025a40603aa98549bc6404157aea59b, type: 3}
  m_ShaderKeywords: 
  m_LightmapFlags: 4
  m_EnableInstancingVariants: 0
  m_DoubleSidedGI: 0
  m_CustomRenderQueue: -1
  stringTagMap: {}
  disabledShaderPasses: []
  m_SavedProperties:
    serializedVersion: 3
    m_TexEnvs:
    - _MainTex:
        m_Texture: {fileID: 0}
        m_Scale: {x: 1, y: 1}
        m_Offset: {x: 0, y: 0}
    m_Floats:
    - _K: 1.39
    - _P: 1.62
    - _rShadows: 0
    m_Colors:
    - _BrightColor: {r: 1, g: 0.81434035, b: 0.6415094, a: 1}
    - _Color: {r: 0.990566, g: 0.62611246, b: 0.62611246, a: 1}
    - _DarkColor: {r: 0.54385775, g: 0.06941971, b: 0.6132076, a: 1}
