%YAML 1.1
%TAG !u! tag:unity3d.com,2011:
--- !u!21 &2100000
Material:
  serializedVersion: 6
  m_ObjectHideFlags: 0
  m_CorrespondingSourceObject: {fileID: 0}
  m_PrefabInstance: {fileID: 0}
  m_PrefabAsset: {fileID: 0}
  m_Name: Lipsar-DiffuseGradientNoColorv2
  m_Shader: {fileID: 4800000, guid: 5037424ab898016469e8bf30f874505b, type: 3}
  m_ShaderKeywords: 
  m_LightmapFlags: 4
  m_EnableInstancingVariants: 0
  m_DoubleSidedGI: 0
  m_CustomRenderQueue: -1
  stringTagMap: {}
  disabledShaderPasses: []
  m_SavedProperties:
    serializedVersion: 3
    m_TexEnvs:
    - _MainTex:
        m_Texture: {fileID: 0}
        m_Scale: {x: 1, y: 1}
        m_Offset: {x: 0, y: 0}
    m_Floats:
    - _K: 1
    - _P: 1
    - _rShadows: 0
    m_Colors:
    - _BrightColor: {r: 0, g: 1, b: 0.24406886, a: 1}
    - _Color: {r: 1, g: 1, b: 1, a: 1}
    - _DarkColor: {r: 0, g: 0.1953187, b: 1, a: 1}
